1947.52
144.086
8.48938
5.26102
8.37369
5.02853
4.37034
5.48177
7.67088
6.43602
7.17407
3831.45
912.62
11.0912
4.85449
7.90929
4.91495
9.5691
6.7018
5.54835
9.62455
6.30678
4430.17
1452.16
11.0973
6.7868
9.54546
4.54727
11.5069
5.63272
6.33199
6.35257
8.11983
1803.25
557.256
9.06302
7.08988
8.05863
4.0116
11.6339
7.14908
7.47307
6.27179
10.5362
3807.71
3573.95
8.53006
5.25975
9.52641
5.95098
7.48965
5.98081
5.67276
10.6464
8.49543
5572.91
2714.66
11.4607
7.89948
9.07085
4.89347
11.1646
7.82101
7.84978
6.36885
9.986
1595.04
2035.75
8.25549
6.77094
9.54843
5.57819
5.44145
6.19019
5.9794
6.66522
9.6659
750.677
2515.29
8.85788
5.01855
8.96148
4.13735
7.03106
7.92607
5.98617
6.57185
10.7179
6807.08
2940.4
8.67355
4.11015
8.17682
4.73903
7.81305
6.83478
7.35088
9.80695
6.27358
2607.69
1418.94
11.7706
6.33044
7.91844
6.09194
7.8514
5.78931
6.17727
8.95979
10.9719
2162.58
4788.58
10.5964
4.73064
9.23973
3.63816
9.9309
6.75716
7.51999
10.9234
10.9959
3779.56
2876.93
10.5446
6.4376
10.9596
3.48852
7.39362
6.12533
6.60233
7.36222
6.11046
5055.16
1562.19
9.09253
4.68247
8.88397
4.48964
4.85985
5.25855
6.82338
10.4125
7.77379
1926.9
285.452
11.4629
7.87182
7.54561
4.75953
8.44249
5.08834
6.45118
8.08184
10.2016
1311.48
4453.81
10.2732
4.11469
7.6348
3.95129
8.97117
6.00469
5.71777
10.5976
10.0958
3575.08
3114.65
9.51077
5.7346
9.44651
5.1253
8.37464
7.74983
6.75626
6.51598
10.0943
1617.06
3508.42
9.43521
6.41261
7.18664
6.58752
7.33661
7.74208
7.60712
8.52528
9.48904
5386.9
323.908
9.72524
6.54802
9.40236
3.85207
9.01389
7.79722
7.70836
6.48264
9.83164
518.26
4504.25
9.23229
4.74763
10.8417
5.22351
5.16345
7.67292
5.39402
9.22297
10.2511
3806.98
3948.84
8.19567
5.86947
8.45003
5.27099
11.3522
7.02215
6.93745
8.67081
7.49704
4469.04
1048.88
10.8734
5.96213
8.95628
4.26079
9.73626
6.15909
6.46855
6.27884
6.75551
3397.54
3336.37
11.8456
7.20815
7.55678
6.54432
8.17556
7.54918
7.73907
10.7342
10.6364
1797.43
206.187
11.1155
4.9309
10.7862
3.84732
10.1908
7.71623
5.90681
7.78013
7.30456
3588.95
3696.89
11.0539
4.01655
10.4085
4.2379
4.82356
6.1915
5.44138
6.14117
9.75607
2328.16
2878.16
11.7209
7.50975
7.14421
3.12911
5.31784
6.71343
6.48365
9.31699
6.10107
24.6676
3944.78
9.10166
7.53912
9.40656
5.19938
5.36515
5.71371
5.63677
6.62454
8.30698
7286.38
3231.64
9.17643
5.4067
7.47853
5.77924
4.36643
5.43252
7.89659
10.4158
7.23991
3237.78
1020.76
9.47562
5.83429
7.15769
4.51524
8.51655
5.95644
6.71534
6.68934
9.27908
2019.19
3729.97
8.36819
6.01101
9.77889
3.02645
5.00365
5.06101
6.49133
10.7771
10.8443
6371.15
2202.34
10.9857
7.79863
6.90852
5.86294
10.4572
6.23385
5.34873
9.46383
9.12904
3941.8
2706.42
10.0849
4.21739
10.7511
5.92788
8.49067
5.67449
5.32433
9.95706
8.48143
3641.04
4508.47
11.2477
4.74239
8.88087
3.55759
7.39852
7.90292
7.40005
7.94681
7.24666
1186.75
971.571
10.5886
4.90701
8.24245
3.13355
7.13604
5.09902
7.04373
6.69996
9.43131
6796
1298.73
9.63632
4.56325
9.34108
5.2061
11.1076
6.66244
7.26619
6.04818
10.1481
5664.52
828.625
10.2257
6.81708
7.95011
3.16949
6.79964
5.5254
6.03578
6.08813
9.02281
5997.21
479.307
9.37841
4.34559
9.10469
3.1545
7.95845
7.68165
7.42786
6.87757
8.99338
1773.1
1567.23
9.42841
6.80191
10.375
4.35856
7.15828
6.33809
7.28098
6.47924
9.82196
1643.94
1964.22
9.70114
5.91576
8.14025
5.44509
6.2483
5.59137
6.74363
10.0907
9.4744
626.06
602.346
8.72453
4.84664
10.42
6.50936
7.8276
6.3748
7.94296
7.96017
9.90885
427.137
1015.71
8.60489
6.5879
9.09738
3.30115
4.45938
5.40105
7.7522
6.21011
8.52237
1464.52
262.001
11.3464
6.83328
8.38799
5.58597
7.36954
6.60269
7.8085
9.80029
7.89455
2575.88
960.528
10.2254
6.0808
7.42162
5.24078
4.83233
7.54175
7.03278
10.7389
8.45518
1332.91
2892.24
8.36622
5.61287
8.36227
5.18136
7.51546
7.70242
5.66615
8.93938
9.6845
559.893
3627.84
8.79117
4.14546
6.93439
3.02872
6.05444
5.78567
7.93592
10.8547
10.2751
4543.49
226.664
10.8142
4.44059
6.9826
3.42003
9.77968
5.0887
7.78787
8.84783
10.2203
2859.16
1164.58
10.3009
7.06434
9.05757
4.06437
7.07958
6.67734
6.20615
8.91515
8.37412
5078.84
2099.62
9.42715
5.5394
7.92783
4.29656
5.2174
5.32893
6.38581
10.4572
6.22014
4213.51
574.954
10.7374
4.61053
6.32841
6.84062
8.47916
7.71827
7.86743
6.27483
9.02332
232.507
4603.76
9.79327
6.10233
7.03786
4.16883
5.34136
7.36255
7.23192
9.42945
9.87861
1031.69
3417.01
10.2792
5.02623
7.09893
3.48616
9.93933
5.75543
6.62374
8.05523
7.37072
2128.86
700.587
9.07602
4.7402
8.42191
6.73122
6.75102
7.58238
5.26416
10.7411
10.1079
3613.06
3562.36
10.7959
5.87599
8.25691
4.2569
6.1878
5.57952
5.12917
8.89009
7.45705
3027.24
1044.11
10.2276
4.08471
10.1537
6.36563
11.9188
6.45737
7.62801
8.01485
6.45804
1824.86
3981.57
9.63873
4.96899
6.09941
6.88001
6.60786
5.02348
5.29207
9.46718
8.93152
3180.83
4555.78
9.02258
7.46296
10.957
6.99789
4.28555
7.04589
6.52339
9.12737
6.43709
178.625
1100.74
8.48555
6.9636
10.8134
3.19903
10.0987
7.43573
5.92264
7.29174
6.10901
6473.26
1035.55
9.51677
5.70309
8.61125
4.68873
9.09967
5.04644
6.93206
8.40241
6.41745
5285.81
353.731
10.4189
4.19192
7.5009
5.98156
11.7959
6.51755
7.92553
9.01652
7.41881
1427.57
1655.14
10.4071
5.58589
9.13472
4.43509
9.05324
6.53827
5.38666
9.46754
6.31763
2890.97
753.93
11.7314
5.53456
9.43724
4.35259
10.9955
5.32612
6.09301
10.1053
10.2645
77.2234
1916.09
10.9857
7.74237
8.6054
5.46131
7.4806
7.77486
6.01443
7.25586
8.77425
293.582
4940.52
10.7365
7.26116
7.28997
3.58988
4.56289
7.3072
6.73224
7.76783
8.20676
2122.19
891.168
9.7648
6.66589
10.5467
3.09644
9.37983
7.57043
6.65667
8.6252
7.50692
465.638
1303.35
8.34175
4.02669
8.00604
4.08221
6.42394
5.75986
7.65415
9.88428
7.26531
2332.71
4222.47
10.5661
7.78043
9.71271
6.17355
7.55736
5.65968
5.66452
10.9304
7.85809
834.035
1985.24
9.82037
7.92776
8.51456
5.57849
10.7793
5.91901
5.95504
10.9755
8.97174
5168.03
445.44
10.5788
5.06943
9.26169
5.47696
9.32064
7.88272
6.50308
8.57226
8.64793
3741.81
2251.32
9.48414
5.8028
8.81295
4.13295
9.97816
5.13216
6.90408
6.11751
9.45774
3743.11
2900.02
11.3268
5.81414
10.9556
5.68186
4.24209
5.10033
7.70949
7.14695
6.15924
5541.01
3813.82
11.0067
7.26572
7.15299
4.17992
4.36233
6.91173
7.33825
6.31326
10.7046
5490.16
1794.72
11.6116
4.78202
8.32181
6.00263
8.4132
5.72478
7.02365
10.8094
8.11961
5475.26
1087
11.1308
7.12296
9.66633
3.21435
4.36393
7.23643
6.75045
9.97448
8.14675
5734.9
3043.07
11.989
5.50003
7.07944
4.7846
5.50513
6.66736
5.5172
6.47767
7.49725
6540.99
1114.5
11.698
6.26912
8.76634
4.58534
11.7066
5.26361
6.64465
8.56078
8.32116
3794.24
1138.99
11.3426
7.70071
8.32613
3.80861
10.28
5.60319
7.97687
8.9359
10.288
5150.3
200.744
11.8702
5.73476
8.86265
6.82156
4.24857
7.94802
6.43874
6.98833
7.40952
4852.04
1392.49
10.6016
6.61263
6.37221
6.8895
5.04863
5.30109
5.09663
10.1715
8.39181
2674.63
1164.07
9.93664
7.37684
10.8539
3.91054
11.9839
6.4021
5.35702
10.2751
6.42996
5193.53
248.53
10.5623
6.83858
6.27699
5.64176
8.70741
5.39496
6.2792
6.62146
6.55218
6873.29
566.661
9.71609
6.04265
6.59473
3.13057
11.5128
7.31772
5.83604
8.57819
8.97694
3344.83
419.522
10.5458
4.00289
7.3045
5.15936
8.15652
6.9513
6.94247
9.311
7.22631
5116.31
2951.78
9.76014
4.78016
10.342
6.00901
5.13999
7.62655
5.03575
6.155
9.67718
2906.13
1183.93
9.05144
5.40322
7.59621
6.18171
6.33042
7.44357
7.13559
10.0367
8.92616
5687.56
818.433
10.7411
6.76121
7.154
6.54312
9.8936
5.17274
5.78403
7.14231
6.71957
7155.1
404.442
10.1219
5.84558
10.6691
4.14256
7.36624
5.32833
7.4881
10.9283
9.78519
610.324
3488.38
10.6796
7.27392
7.17736
3.42948
11.7451
6.79079
7.85153
7.77878
8.59126
2689.76
3342.56
9.75636
7.69207
9.1335
6.73811
7.30978
6.54274
5.20678
9.63632
6.55171
278.091
44.6799
9.2901
7.8815
10.4267
3.7044
8.0349
6.55183
7.1139
7.64447
6.99088
1274.57
775.312
11.2882
7.65011
10.1722
5.94067
7.70998
7.07171
5.24193
10.639
10.5369
3998.03
1164.31
9.96435
5.54386
8.74156
6.64127
9.43423
5.27615
7.46033
7.66122
9.79409
7219.63
2537.42
9.91292
5.65748
9.41973
4.62941
5.36007
7.91256
6.40452
8.67003
6.99152
5932.62
4533.42
10.0895
7.4362
10.9189
4.05504
8.03112
7.63718
7.04972
7.33192
6.09478
3177.57
2155.29
9.50986
4.63233
6.16405
3.18679
4.95539
7.90284
5.33391
9.18784
10.026
7222.7
4585.48
8.37622
6.19107
6.80399
6.52142
6.26874
7.7269
7.3461
10.0042
9.54905
524.357
2904.08
11.7614
6.22576
10.7158
4.04659
6.9746
7.17662
7.81202
9.42982
7.11352
7141.37
1867.94
8.3191
4.00957
8.89359
6.10144
6.62299
6.98528
6.16435
6.13797
6.4812
4132.91
1422.68
10.8447
7.37254
10.382
4.59253
4.68954
6.35744
5.59881
6.8547
9.23198
3329.04
4237.43
8.49856
6.72991
9.06928
3.89058
5.85506
5.98176
6.90288
9.37636
7.93712
4024.7
154.55
8.86115
5.34988
8.98869
6.1704
10.2319
6.59191
5.40357
9.56256
6.62097
144.951
1429.03
8.12528
4.64464
6.93623
6.86798
8.40146
6.54243
5.16158
6.71652
7.72196
862.54
4157.63
11.8828
5.97045
8.27126
6.88613
5.28804
7.48525
7.55162
7.41498
10.1782
31.7524
2111.15
10.2369
7.46976
9.71441
4.50631
11.1071
6.39646
6.82394
10.5586
7.64492
3227.52
3403.26
10.3863
4.32139
10.2482
5.57986
8.78233
6.12938
7.61016
10.1566
10.706
2675.81
3521.57
10.7707
6.82896
6.61923
4.82174
5.80606
5.80781
7.69649
9.94134
7.01337
3712.78
4696.5
9.5938
5.79649
6.04799
4.20389
10.3466
6.89234
6.46984
10.6314
8.4581
6184.84
1058.22
8.72082
6.04571
8.49313
3.93298
8.91311
6.17388
7.69566
9.34247
10.6442
1908.86
310.281
11.1923
7.99049
8.55115
4.50832
5.33653
7.49199
5.25353
6.00563
7.71201
2003.69
2952.38
9.04562
4.17762
9.41116
5.88535
5.59915
7.7188
7.37719
6.36008
7.21234
5829.21
1785.68
10.5995
7.23373
9.2551
3.87752
8.47702
7.63256
7.66162
8.97937
8.29977
4582.29
1155.87
9.9639
6.98309
9.965
5.24998
11.3582
6.20435
7.23515
6.25912
8.80348
528.536
2435.3
8.95998
5.38837
8.19298
4.3269
4.86896
5.86976
6.81726
10.5432
7.2399
7375.1
631.837
10.7546
4.93744
8.68321
6.19826
4.67331
5.94685
7.91599
7.49418
7.68266
6452.63
2394.78
9.11266
5.93328
8.90539
6.48669
6.68259
6.8993
7.22416
9.1785
6.62266
5382.58
1786.32
9.76984
6.78822
10.0454
3.78204
6.57214
7.50301
7.61946
8.25696
10.9912
1214.65
3878.72
8.67363
7.54648
9.93937
3.16805
10.8078
6.55674
5.52794
9.17554
7.03391
6662.33
3532.05
9.5878
6.33881
9.1238
5.19262
11.2138
5.23019
7.43699
6.54028
6.94136
3728.98
4882.63
11.5159
5.87665
6.38815
5.94394
5.14621
6.48519
5.17881
7.87511
6.74691
1995.98
1961.87
8.22848
5.70102
8.6891
5.00565
7.70739
6.36232
5.79184
9.64404
7.0028
2318.06
3617.7
11.0353
7.52508
7.7999
3.92348
8.45691
5.18682
7.01601
6.64562
8.75517
6281.06
1042.42
9.82548
6.61758
10.9537
3.4483
11.9202
6.41465
5.70218
10.3907
10.4673
5786.85
1051.84
10.4581
4.87618
10.2212
4.32189
7.2383
7.83216
5.63747
10.3751
8.45447
7720.29
1075.68
8.81283
4.39448
8.90405
4.62458
4.87771
5.00372
7.9182
7.96469
7.6647
1981.59
1185.97
9.2385
4.44833
10.4452
4.20029
5.17764
6.57999
5.27673
10.1574
7.40233
7254.37
1667.3
9.73377
4.01939
8.0499
6.11742
6.87225
6.47482
5.9645
9.09266
6.09594
2700.79
1094.58
10.0945
4.91761
9.27042
3.14138
9.9949
5.53491
7.06358
8.70976
9.45746
1338.55
980.32
11.1961
5.84182
6.04241
4.24413
7.82206
6.49198
6.89841
8.82792
6.44731
7597.56
1331.7
8.54315
6.24356
6.3633
3.54833
7.64631
7.53712
7.26743
10.3082
10.9417
3717.9
3037.21
8.35244
5.01703
8.87704
3.29943
4.03302
5.92203
5.62663
8.28615
8.11056
5106.49
1227.79
9.83432
5.43931
6.8826
3.9511
10.681
6.15132
6.70296
8.31934
9.08989
4232.59
1238.87
10.1285
7.157
7.55496
6.31915
11.9866
6.31773
7.80489
6.03162
10.1931
2530.03
3103.2
9.52804
5.49351
8.17143
4.45462
9.0954
6.72919
7.80719
9.13181
6.22458
1860.89
1004.79
8.34889
4.50775
8.28578
4.24566
4.41513
6.50657
6.12657
7.18822
7.47735
5338.59
1077.95
9.32216
6.78377
8.318
5.57703
7.2204
6.94825
7.26738
7.47953
9.69296
755.505
193.234
11.4417
7.22239
10.3291
3.70348
8.07638
7.05065
7.76263
10.2578
10.615
19.459
869.349
9.46118
7.73357
9.39277
5.36484
6.37839
5.10939
5.80908
6.15081
10.7934
164.423
541.451
10.2278
7.42779
10.6979
5.09982
5.66908
6.74286
7.60539
10.0633
8.35042
4330.88
1919.72
8.75484
6.2779
6.1235
6.6022
11.8562
5.81045
7.95496
9.69717
8.66877
2917.47
399.782
11.232
5.40372
9.35686
4.34795
5.76401
5.93546
5.14167
9.07348
9.38548
383.215
664.055
9.92471
4.01747
8.39653
5.58021
5.82403
6.22157
6.14538
10.4726
9.65638
1711.92
875.671
11.8682
6.07865
6.60526
4.75207
10.623
6.10001
6.49688
7.14499
7.05275
3514.52
1679.71
11.4795
4.56197
10.2394
4.76825
10.8786
6.19962
6.21564
9.35051
9.47531
4674.23
434.423
11.5389
7.55829
7.03333
3.2515
4.63214
6.75522
6.58243
10.0481
7.77802
2538.07
1412.6
10.6902
6.45782
9.63142
4.11634
5.16959
7.55663
7.07679
10.7174
10.0988
406.131
4065.09
10.7956
7.57208
10.0751
5.14124
8.38511
6.06739
5.3682
7.55463
10.7084
6241.6
2760.45
10.196
6.5191
8.77646
6.00249
9.47797
5.40352
7.38064
8.88021
8.61675
864.875
956.627
11.5118
5.7602
7.16407
4.06857
10.3928
7.84456
5.04337
8.82441
10.4243
2476.42
1621.6
8.14991
5.37971
9.16932
3.34372
6.8769
7.59301
7.37847
6.18101
8.83609
1387.66
644.599
9.08861
4.99145
10.0741
3.21865
11.179
6.99599
7.76064
6.91638
6.34983
2225.84
1695.52
9.44792
6.02785
10.6494
5.00068
4.60345
7.30496
5.01709
8.2355
10.4743
132.11
2398.34
10.2131
6.68647
7.44435
3.95879
6.75021
6.7124
5.96397
9.17475
10.2835
4196.37
1839.87
11.1417
4.29726
8.38985
4.74608
11.2288
7.34933
6.30537
9.8841
8.77482
1265.95
4489.09
10.1664
4.05621
6.18556
6.87907
10.2105
7.9573
7.287
7.52246
7.13936
4349.45
1100.64
10.8762
5.26829
10.689
3.69309
7.31676
5.32677
7.26326
7.90344
8.38418
3957.33
2416.29
10.1151
6.22942
7.42344
6.56805
6.06479
6.97297
7.31065
10.3411
6.05979
3893.42
1085.31
10.3562
5.37108
6.39364
3.35116
4.58561
6.59717
7.42462
6.72933
10.9637
7355.83
1287.97
8.0579
4.61288
7.93471
3.67753
11.2307
6.853
7.45308
9.84304
8.78908
2818.65
848.468
8.93466
7.68811
10.0049
5.21018
4.80775
5.98248
7.7057
8.89624
9.12262
13.3936
489.432
10.5641
7.82482
7.62142
4.96977
5.93439
5.39921
5.20673
7.02382
9.19425
668.192
4154.62
8.08504
5.10154
8.96386
3.0927
5.46713
7.27203
6.57847
10.2031
7.5937
356.231
1299.88
10.517
5.0125
7.17509
6.54687
6.29045
6.73728
5.56629
6.86009
8.05313
4625.49
2219.78
9.80364
4.29804
9.89114
3.86496
4.56373
5.80965
5.67764
7.46094
6.62965
2217.86
2035.71
8.79177
5.11638
9.39476
4.13127
9.06906
5.22305
7.72374
9.59226
9.11105
434.556
493.421
10.3896
5.78205
7.22964
3.44399
6.064
7.10969
6.95343
9.42653
6.78777
4797.48
4937.31
8.85168
6.46696
10.3066
4.36369
4.29235
7.63266
6.35973
6.4747
9.8408
2552.87
968.761
11.0205
7.19453
8.98528
3.20574
8.24906
7.31194
5.94127
7.0905
10.8416
296.346
1699.98
8.62467
6.83557
7.8753
5.02229
10.1899
5.74907
5.69038
9.85834
6.07229
2331.92
4139.63
10.6326
4.26331
6.81259
6.52631
11.4276
7.52242
5.49116
9.89558
8.39144
645.672
35.7043
10.054
4.40017
10.1361
3.12375
4.59799
5.04635
7.80512
9.38947
7.87227
706.029
84.6828
8.91814
5.39542
6.93481
3.55337
5.26782
5.81086
6.59126
6.83785
8.5168
2574.8
2127.74
10.1276
4.51664
9.83498
5.81394
7.85257
7.14531
6.67193
8.65484
9.9846
1029.11
1032.8
10.1929
5.42033
8.23702
4.73806
10.4325
5.6443
6.18857
10.3354
6.10236
5107.49
1955.27
11.9096
5.92731
7.36107
3.28416
4.81259
5.28912
7.2662
9.06424
6.37704
6142.75
3485.21
10.7549
7.89077
7.82454
4.54425
8.98884
6.8007
7.43962
7.31318
9.37234
9.05686
4511.15
8.94895
4.99091
8.66957
4.85695
8.46334
7.62823
6.48776
9.19731
10.7762
2299.92
537.633
8.9615
6.24938
9.64769
6.16471
4.66752
6.06228
5.16274
9.33659
7.16693
865.194
1163.15
8.45908
5.18567
10.7343
5.87849
4.55409
5.48135
7.08422
9.12864
10.3151
4291.36
921.355
8.41037
5.76089
8.26673
4.03316
4.40436
6.87649
7.48553
8.91468
7.31368
5594.14
1203.32
8.21032
7.30078
10.7689
6.72376
5.04687
7.23632
6.70754
6.02523
10.9973
2720.65
1335.88
9.45894
6.74151
6.46928
4.66215
9.13291
6.61984
5.39328
6.05895
6.89492
7127.16
343.334
8.19095
6.84091
9.99579
3.0349
4.18086
6.6969
5.03431
10.4059
8.16584
867.497
402.157
9.28486
5.57464
7.16859
4.40469
8.92201
7.48409
7.44108
8.68579
8.96182
90.9847
35.9728
9.60706
4.08629
6.61043
6.73716
4.03313
6.29587
6.40825
7.13024
9.47982
4704.15
3729.27
10.931
6.66927
10.7114
3.61818
7.60598
7.21063
5.96176
10.4391
8.72922
382.147
954.463
11.5894
5.95862
7.34901
4.18528
9.22804
5.91306
6.94516
7.32753
9.19769
346.962
2659.59
9.78444
6.93187
7.23607
6.61876
7.43598
5.16728
7.35037
9.86681
7.55483
3170.87
3329.7
9.73954
4.1625
9.64532
3.65317
4.62438
7.54117
5.40035
9.0304
9.45595
2764.42
3132.64
8.68307
4.62157
10.1063
3.77368
7.37561
6.12059
6.87465
6.91062
8.50388
7016.24
360.691
8.12156
4.04181
7.64606
4.58318
7.93265
6.16549
6.94234
6.28756
8.16651
3393.66
3490.89
11.3688
5.86332
8.74438
4.73393
11.4801
6.13745
6.39541
6.32654
9.13376
6813.4
3320.59
9.38301
6.02303
8.14009
4.21098
8.69404
5.89415
5.89513
10.2742
8.73159
2205.85
558.052
11.3072
4.65128
6.53961
6.73614
11.5696
5.36776
6.10559
10.0702
8.53198
3630.76
332.848
11.1751
6.48029
6.46401
6.31372
9.6188
6.60531
7.88237
10.7194
10.0621
660.172
1337.66
11.8298
6.6019
8.24402
5.63992
10.1015
7.03365
5.76506
8.31865
10.0068
2465.83
3554.54
11.5502
7.15618
6.87873
5.15568
5.97173
6.41433
6.95788
9.04489
8.83361
7174.98
640.237
10.2239
7.70095
10.7408
6.33627
8.94225
6.42829
5.22791
9.34826
7.86977
3516.49
4551.73
9.73517
5.71244
6.65986
3.87431
8.72873
5.97357
7.58538
10.1725
7.29515
355.735
1180.84
8.91493
6.31347
7.53788
5.97251
4.90885
7.75324
7.74972
7.58055
8.34651
2624.13
2785.22
9.9525
5.23037
6.14318
6.96602
6.75538
5.61807
7.66912
8.65895
9.50463
5726.99
1242.25
11.9951
4.18384
7.89601
4.51917
5.2745
6.15306
7.41413
6.46463
8.94997
6298.58
4773.56
10.616
7.53144
9.89982
6.09162
7.95083
5.03331
7.76662
7.84793
10.1166
1891.18
1447.63
10.5299
4.51364
6.20909
5.55048
4.28265
7.16655
7.82646
8.07936
7.03714
1209.57
3391.77
9.25051
5.23477
6.55665
4.32826
6.84738
6.75254
5.1267
6.78287
10.6246
7267.34
4053.83
10.1052
6.21975
9.93487
6.69577
8.40267
5.74998
7.6746
8.0246
6.13664
7891.38
519.219
9.95482
6.92841
8.56499
6.97223
7.5765
7.75176
7.04634
10.0655
6.95099
2172.68
1185.16
10.0886
6.19057
10.8808
3.84548
4.70961
5.84246
6.34634
6.79576
7.05891
974.025
4405.18
9.18654
6.15167
10.4548
5.19526
5.63462
5.58836
7.99687
8.70149
9.96597
4339.83
682.312
8.58181
6.81014
10.9301
4.33444
6.14451
6.51593
7.87706
7.56309
7.88109
4116.42
2174.95
11.5658
4.47314
8.74601
3.86785
10.3117
5.9761
5.38737
10.5753
7.09071
3400.71
1606.69
11.3602
6.05471
10.3687
4.53966
6.03915
7.88848
5.63966
8.34891
10.3266
4406.25
2426.24
8.72091
7.32447
10.113
3.39542
5.66083
5.76699
6.56709
9.02794
10.5788
5068.25
2431.36
9.37328
5.79629
7.32424
5.39649
8.58709
5.98586
5.43454
8.7935
7.84507
6256.49
267.372
11.2899
6.26864
10.646
6.89111
4.75879
5.4378
7.67229
7.95226
10.3332
5995.56
889.058
10.9627
7.06406
9.50753
3.79925
9.23309
7.5282
5.05699
9.01675
7.68797
2349.52
3242.7
8.97212
5.77533
6.88111
4.63121
9.76403
6.73518
5.16352
6.60423
10.8292
3089.2
3093.87
8.72804
4.77307
7.6637
3.50668
10.8907
7.23263
6.19563
9.12696
7.5159
5231.01
1493.2
10.4901
6.40558
6.82472
3.95445
5.51614
6.41043
5.82896
9.54756
10.308
1132.7
1539.32
8.35655
4.34683
8.0772
3.86122
5.4933
6.70489
6.61754
9.86348
6.04744
1400.04
564.052
9.16565
6.0908
7.28542
3.06425
10.7568
7.54442
7.13751
6.19491
7.99562
546.495
4270.79
8.39937
6.61362
9.30559
4.3013
4.59806
5.61477
6.17417
10.626
9.64626
1154.09
1410.79
9.51987
5.84983
10.0242
4.25741
4.71214
7.14508
6.93465
9.3585
7.77754
5988.57
4941.97
8.90953
6.10326
9.16681
6.93177
6.81551
7.22803
6.00004
7.40479
8.09737
6707.89
1104.72
11.4792
6.85033
7.42349
6.24562
4.80135
5.92072
5.74711
9.2073
6.86007
4684.01
832.07
11.4675
4.4907
10.1353
3.05092
11.0928
7.78298
5.25647
7.63286
7.86631
181.211
173.644
10.043
4.8068
9.4834
3.90546
7.59522
6.3208
6.7541
6.32068
8.26145
1474.25
366.014
8.88665
5.81772
10.3665
4.22817
9.03757
7.897
5.79484
6.04648
6.78837
6713.82
1856.66
9.75101
6.22751
7.56821
6.13884
6.5279
6.77989
7.30319
7.78144
9.72198
1513.5
1668.78
9.49665
4.33834
8.86114
5.05177
11.9145
5.13685
7.08658
9.82567
9.69947
5890.02
3272.73
11.8242
4.57872
7.55972
3.65756
11.1929
5.75708
5.44352
10.5543
10.9362
394.124
4317.7
8.66684
7.49289
10.061
4.5474
6.47889
7.46253
5.57588
8.00645
8.99167
6326.8
273.421
11.9429
4.47848
8.23105
6.14597
8.53746
7.52626
5.77803
9.6669
10.0899
7965.76
3421.86
9.39249
5.00218
6.32443
4.75647
7.97348
7.68788
5.38516
8.17282
9.49794
34.1943
78.2959
8.04863
4.66955
9.20473
6.17036
5.11853
5.72025
5.93554
8.42298
8.52485
6048.25
750.841
9.78025
5.10283
10.2043
5.89343
8.99215
7.02487
5.55745
7.47999
9.23331
1154.77
1141.59
10.3222
7.28387
9.36009
5.76166
6.24845
7.02887
5.50837
9.91937
8.56
3082.95
461.197
9.5526
4.94338
10.6828
4.94682
5.38051
6.99191
5.00435
10.1139
10.1863
134.831
4491.6
11.4181
6.25927
7.32427
4.61087
4.40025
6.32882
6.88922
7.80669
10.4353
2724.31
2341.31
9.96621
5.51824
6.88615
3.29223
4.89472
5.39533
6.37342
10.6699
6.12795
1178.55
2779.54
8.26504
5.01581
8.51124
4.98982
11.6067
6.33804
5.74211
8.06307
8.23606
5892.05
196.75
8.3425
7.08647
10.698
3.1263
11.7283
5.34732
5.08972
7.95788
8.17873
2214.1
2427.33
11.1914
4.70385
6.50933
5.9324
5.01866
7.50873
7.18592
10.6743
6.90369
7849.68
2925.3
11.1695
7.97977
7.14124
3.49827
10.9801
6.78483
5.43495
10.7964
9.26379
7993.02
995.009
9.66033
4.14698
8.12018
6.48126
4.1814
5.14567
6.11364
8.82323
7.68524
1121.03
1375.65
11.2926
6.93547
6.23158
3.45167
4.81737
6.83262
5.00926
7.52665
7.45608
2406.81
3340.53
9.24375
7.45899
9.81465
4.25536
10.2869
7.45775
5.28947
7.58154
9.51261
811.667
871.009
10.4998
5.12562
6.5408
3.21179
4.4112
5.925
5.88083
10.0343
7.55495
5876.57
4628.34
10.1008
4.06598
8.51294
5.17584
5.2595
7.26742
7.13398
7.37837
9.47666
5112.34
1732.45
11.1504
6.97956
7.01955
4.43562
8.14709
5.86641
5.11111
9.37515
8.62316
1482.31
2357.9
11.8538
4.7037
10.0266
6.50853
4.60131
6.91044
7.96989
6.53985
6.94128
4540.35
4833.56
9.75186
6.94727
9.23795
6.57088
8.28176
6.2944
6.03745
8.39547
7.34048
1380.04
3066.06
8.39285
7.00731
10.8624
4.29297
7.1831
7.21889
5.80129
7.78968
10.3961
4453.21
139.385
11.541
5.45819
8.09016
4.167
9.39306
7.15798
5.85156
7.22703
10.8126
1827.98
75.6654
8.42978
7.79005
10.1428
3.95483
5.48403
5.81288
7.0515
7.72229
10.8992
4705.78
1210.04
8.98315
6.76158
6.84304
4.40306
8.37587
5.49369
5.70994
7.08405
9.1938
5290.24
1771.79
9.03254
5.39585
7.71654
3.76848
10.2744
6.87157
7.90662
7.71654
10.5067
1326.79
2455.25
8.16601
5.47852
9.86318
6.66952
6.24691
7.27303
7.65307
7.52549
7.62454
4466.58
1692.56
11.6544
6.62076
8.95513
3.37649
11.1699
7.80322
5.20736
8.16283
7.92351
4055.29
1513.25
10.9796
7.54699
8.41748
5.72471
7.88281
7.1906
5.67612
8.83113
8.54918
6309.25
3305.92
10.8258
5.58521
10.7565
5.1217
5.73195
7.26813
6.93846
10.2964
10.2142
4759.3
678.855
11.4968
7.05771
7.42719
6.05454
10.5059
7.87744
6.11796
10.4397
10.5459
4862.06
768.554
8.55155
5.96531
7.93112
6.0668
8.72678
5.64617
7.01408
10.6321
6.1606
5864.59
1818.94
9.45471
6.2907
8.24166
3.80769
8.26199
7.02647
7.70653
7.46614
10.8587
7403.99
872.162
9.09874
4.99743
6.21321
4.65844
6.5291
5.36196
6.44091
6.85772
10.2454
3188.12
998.73
9.63103
4.32811
7.15756
5.83875
5.74428
5.88261
5.30469
8.72071
8.10368
4311.57
2003.95
10.3881
5.75619
9.83333
4.13246
6.37124
7.13579
6.92305
9.75184
10.3644
1506.15
537.475
9.39891
7.36527
9.58076
3.56276
4.11937
6.74983
7.03224
9.19691
9.8253
996.698
2264.19
9.84388
4.16585
9.81927
6.4194
9.08403
5.52282
5.26141
7.24806
9.93816
6916.63
1268.44
9.47367
5.97202
7.72042
4.88757
7.81126
6.26764
7.19678
6.76483
7.88612
6029.83
1585.97
8.58359
5.04065
7.66813
4.67747
4.09589
6.46245
6.24408
7.71717
8.14398
681.106
374.73
11.3849
5.38191
9.9355
4.79721
5.49921
5.10355
7.836
8.32772
10.3318
44.6327
4574.4
11.7653
5.39841
7.57716
3.12179
10.0564
5.22481
6.46994
10.0389
6.86548
1355.25
1858.18
10.9112
5.44653
9.50012
5.61472
5.0222
5.84736
7.43751
6.14456
6.27611
718.174
4845.53
10.4199
5.29346
8.49119
6.52451
5.87322
5.91123
7.97544
8.28881
8.17477
7657.99
3974.76
9.01431
6.64293
7.87521
4.58847
10.9193
7.71414
7.66578
9.3927
7.05564
740.224
1128.32
8.72121
6.00073
7.95065
3.37635
5.46008
5.73636
6.89437
6.8313
6.12298
2666.58
3478.89
8.25607
6.50303
10.5083
3.77658
7.74005
6.58915
5.5472
8.2191
10.2192
6385.02
4960.79
11.4214
5.23
10.722
3.84605
7.04176
5.41015
7.46662
7.27146
6.88191
3878.65
857.607
8.00796
4.12392
8.67746
3.95989
11.1817
7.49176
6.94227
7.18886
8.5086
5184.82
4522.51
10.9232
5.39406
10.3615
3.62729
4.89362
6.4468
7.51254
10.6677
8.21314
5931.64
723.068
9.44975
4.69746
6.6411
4.72804
6.24025
7.65824
5.28839
7.29058
10.8491
3073.74
2071.78
10.8964
6.80032
9.13319
4.68143
7.38594
5.14537
7.26325
6.75772
6.86771
2543.68
2946.8
9.2679
4.6738
7.04187
5.93436
9.39282
7.15259
5.02619
7.27312
7.14959
1975.43
2606.29
11.7018
4.2912
7.72394
4.0864
6.53296
7.96321
5.85159
8.05651
9.04015
4225.31
2103.61
11.3177
5.80995
7.09026
6.85837
8.04829
7.31957
5.83467
8.46402
7.97081
421.975
4420.68
10.4456
5.06984
6.71173
6.17765
4.61826
7.78227
7.64606
6.44856
8.32346
2193.01
1242.84
11.79
6.35011
9.99748
6.58183
8.5913
7.09512
7.91215
10.9093
8.50227
1141.38
1592.2
9.78743
5.97076
6.84192
6.64951
10.8326
7.14079
6.00207
7.68333
10.3956
6282.14
423.631
9.53683
5.60561
6.69409
4.93749
4.46884
6.11957
7.34942
7.19595
8.29542
1052.8
3248.95
9.09337
5.26229
6.7193
3.17347
10.1665
5.59307
5.63205
6.26181
8.61848
1216.6
3907.8
10.5113
6.71895
7.16133
4.86256
9.90604
5.37616
6.64995
8.35347
9.90517
1516.19
1873.6
9.33819
4.39724
6.56147
4.95162
6.04885
7.30582
5.29162
6.40429
10.3953
1676.17
841.744
9.5413
5.58573
6.48144
5.43203
9.63481
6.21046
5.7317
9.34688
7.03453
2230.87
3761.14
8.39833
5.81898
9.93408
3.90724
9.39434
6.81948
6.86742
7.705
9.35937
74.5205
3406.1
8.40722
5.754
9.84774
4.95896
9.07498
6.2754
5.97601
10.7368
7.23336
1457.14
2821.69
10.5914
7.496
10.6487
3.74821
4.19942
7.1369
5.88323
8.71056
6.63002
2243.37
842.887
8.81342
6.51472
10.9198
5.61114
6.54942
7.92262
7.13563
8.86736
10.5229
3632.32
4865.02
10.2721
6.24841
6.56404
3.26892
10.5156
6.27338
7.82406
7.52173
8.74611
3159.59
734.338
11.046
5.50465
7.83386
5.17739
4.2624
5.55386
6.8527
9.85724
8.1387
608.522
3213.88
9.31578
5.72032
8.5936
6.70236
4.79694
5.69536
6.6902
6.3372
10.1187
7918.07
4029.69
10.7901
4.16884
8.39331
5.90026
6.29756
7.28001
5.13162
10.8352
8.20398
2041.46
3748.14
8.61763
7.28348
10.5909
4.54442
8.3838
7.93002
7.22944
7.72702
6.19179
791.223
3134.4
10.1843
4.88275
6.16281
6.97739
11.2069
5.75837
5.26148
9.98046
6.05623
3350.19
1643.04
10.4996
5.07284
8.67671
4.53505
10.3699
6.30443
5.31626
6.4462
10.1894
5115.77
1268.04
8.07996
7.36834
10.1346
5.55514
10.6127
6.59486
6.44712
9.95393
10.0232
2942.04
4250.1
9.02814
4.12056
9.33552
6.75927
4.15724
5.29567
6.81907
7.73889
6.49945
2895.21
4645.14
11.0772
7.08687
6.48883
3.25998
6.11136
5.333
6.91752
8.28011
10.034
823.777
1966.39
10.493
7.45325
10.5364
6.14255
7.28916
5.21187
5.48039
6.07069
10.2652
6045.52
2123.79
11.9209
6.21134
9.12692
5.27823
7.43137
7.85969
6.52001
10.7502
6.83059
3711.17
816.733
11.2501
4.81669
6.48952
6.32618
11.4075
6.99527
6.44488
7.43928
9.82502
2514.83
1083.53
10.3554
5.26741
6.17145
4.31988
11.8395
7.08811
5.27804
10.2084
6.40415
4025.74
2140.13
10.9452
6.02567
6.93605
3.33555
4.10207
6.57428
5.74319
7.64049
9.24279
2649.63
113.778
8.97182
5.51328
8.29905
6.1378
5.36905
7.85895
5.77012
7.72569
6.44902
1080.49
774.468
11.176
4.71915
9.291
4.16941
5.45739
7.14515
6.68171
8.88938
10.5819
3116.15
1008.46
10.3813
5.13238
6.59566
5.30224
5.66397
6.78663
6.79379
6.07115
7.62328
3448.95
3375.56
9.34075
4.74552
10.1785
5.09491
6.03252
7.27927
5.75058
6.12769
8.88676
4707.28
1816.92
8.97471
5.15959
10.9233
5.31139
8.33153
7.10927
6.99203
10.1213
9.21291
717.498
2038.27
8.86586
7.22901
8.79436
3.50317
6.55234
5.58889
7.70363
9.72811
8.14251
506.85
1056.9
9.33215
4.40939
9.08511
3.6734
5.18923
7.88293
5.17137
9.97339
8.84989
408.955
2006.74
8.56695
6.19025
6.43734
3.79945
9.90161
6.07767
6.93898
8.62552
9.53877
851.652
152.7
10.5567
4.55065
9.22492
6.30952
5.36534
6.92294
7.68466
6.80599
8.559
1476.01
4278.37
10.7567
7.00065
7.24783
3.00382
4.83188
7.68
5.03429
9.96188
6.52904
3692.8
2178.41
9.74205
5.18998
8.24337
3.43989
8.55618
6.0264
7.61243
7.91003
6.98049
3550.55
723.041
8.2284
4.66155
9.54657
4.12051
6.99509
7.20276
6.80194
7.7053
6.03897
1672.93
1018.98
11.2522
7.53638
6.38736
6.05374
5.28431
6.66954
7.38828
9.51271
6.79274
3380.77
224.492
8.9287
4.02792
9.2098
6.71916
9.40698
6.13759
6.62312
8.72666
10.2696
6756.52
4126.89
10.9285
6.82038
6.31902
5.03864
7.12518
6.84127
7.70725
10.8629
7.57069
2794.17
3535.33
10.4272
7.99725
10.7937
4.54769
4.45612
7.73371
6.47557
8.51635
6.83725
4945.97
740.529
11.475
6.54245
9.7469
6.99557
7.58522
5.45545
5.91396
6.57309
10.1011
1988.34
291.271
11.5547
6.72825
9.12224
6.39257
5.30877
5.39681
7.9503
7.52284
7.07986
1720.02
3866.06
11.1542
4.10087
7.07285
4.99369
10.3862
7.30312
6.78715
9.65474
9.41587
6297.82
2378.42
9.9967
6.22897
9.53872
4.8354
5.92363
7.13307
6.89092
10.4887
10.3206
2639.44
3359.57
10.3283
5.62105
10.7954
3.01715
8.89487
7.75419
7.85126
10.4783
6.80905
1219.95
1433.95
11.8556
7.27475
9.90163
5.49669
7.14851
6.74504
7.61643
9.1889
9.65118
548.655
655.095
11.2981
4.33676
10.5356
5.4801
5.27893
5.83515
5.1202
8.0368
10.6786
2242.56
2624.68
11.7481
5.81481
6.2066
5.41586
4.16677
6.25503
6.15174
8.85109
6.02726
3026.81
3222.86
8.2792
4.75332
7.66113
6.36567
11.3846
7.6193
7.04785
10.6828
9.62593
842.721
1366.59
11.7837
5.4321
9.57012
3.23108
8.90971
7.15721
7.36541
6.56141
8.36136
5227.19
4744.94
8.91893
4.18914
9.30575
4.24176
10.214
7.29499
7.73411
7.21553
9.35782
5238.97
813.834
11.0199
6.08727
10.048
3.7431
7.45007
7.58067
6.06673
8.14656
6.87624
3217.59
4670.27
10.6186
5.07894
6.23827
3.20866
11.6793
7.78703
5.98907
7.76514
8.16905
5465.78
3276.47
10.1975
6.64418
8.90973
4.46085
8.45013
5.53752
6.76194
9.9043
8.27373
5061.22
1139.28
8.8231
4.29331
7.77413
6.94942
8.04316
6.26321
5.03999
9.51182
8.39771
2318.06
2432.44
9.92775
7.28336
8.24671
4.16824
9.07857
7.847
5.28932
8.41863
6.92751
1535.4
551.667
10.6903
5.48027
8.17688
3.6224
9.05947
5.92694
5.36578
10.2959
7.90217
1996.17
2196
9.03967
6.29087
8.04892
6.71735
4.38411
5.15211
5.56486
10.4579
7.619
7402.17
111.216
8.62603
5.43511
7.10024
3.59562
9.98967
7.36927
7.4148
6.49653
8.88588
1379.53
3151.47
8.91479
6.23882
9.01751
4.07496
5.86819
6.55289
6.43147
9.94156
10.8727
3070.42
1974.73
10.5337
6.85817
10.8147
5.02133
4.1777
6.84781
7.62137
8.93392
6.11379
4580.64
1192.5
8.53526
5.75801
10.9659
5.73076
5.59484
5.71561
5.15018
8.09294
7.78405
3520.96
4301.96
9.60178
4.12082
8.30479
4.22788
10.6537
5.73779
5.66635
6.0315
6.42806
3031.56
4594.13
10.613
5.9086
6.08061
4.31141
8.52512
6.09937
5.86291
10.2282
10.0822
1576.54
1246.7
9.23331
6.38489
8.33735
5.60868
5.08744
5.37524
6.88516
10.482
8.45043
843.033
937.787
9.60452
7.4196
9.2101
4.50624
11.8544
6.59332
5.26511
9.48607
10.2953
3469.39
2386.93
8.31532
7.77981
10.4491
4.32879
6.46536
6.73573
7.72968
7.09541
9.13164
1025.92
269.901
11.4072
6.07883
6.42331
3.42259
6.26982
6.93511
7.35219
10.1256
9.61696
5589.59
986.537
9.14909
5.73995
10.4178
4.54976
5.29377
6.84741
6.18248
9.77554
9.40135
1581.9
1251.77
10.9177
7.15281
7.2639
6.81445
5.29548
5.67576
5.37078
7.05249
10.5878
684.609
1191.6
10.4555
6.93526
8.95597
5.25592
4.81753
5.99811
5.74535
7.57529
9.1259
1348.02
612.327
8.86015
4.07801
7.3726
4.19451
6.81185
5.43183
7.64953
6.19013
10.322
1994.69
1213.07
10.7745
4.30804
6.62459
5.48162
4.38334
6.65874
6.54704
9.8213
7.92026
356.933
3301.97
8.32472
6.18154
8.69444
6.77345
5.9554
5.02511
6.89015
6.23352
10.3835
2249.23
3862.98
8.45949
6.05064
8.52599
6.12129
9.92931
5.49265
5.31564
6.07098
8.21404
2171.03
1253.83
10.2346
5.85551
9.40236
4.45599
10.5247
5.89553
6.70758
6.55433
10.357
1033.28
53.032
9.02214
7.52201
9.19898
4.1372
5.5795
6.59801
7.24516
6.48225
7.42301
206.606
3615.33
8.73953
6.42009
8.85048
4.04155
4.21449
7.62844
6.11052
6.93809
6.93548
548.083
3471.7
9.42427
4.86317
9.9736
3.85119
10.9566
5.60669
7.60079
7.8108
6.27508
1951.89
1143.66
9.53161
6.14841
7.49295
3.39926
6.76577
6.37108
7.61707
7.36578
6.49843
2237.05
275.081
11.2148
4.23197
10.2866
3.26714
8.8979
6.58962
5.38606
10.3345
10.7474
4519.1
1443.16
8.94349
4.4976
9.95431
3.03896
9.15582
5.44215
5.01102
8.43767
8.29662
3370.36
385.476
11.8037
7.50017
6.12828
4.995
5.26885
6.43581
5.43274
9.024
9.09771
292.729
2190.26
11.0951
4.31603
7.27707
5.7254
7.39513
7.06079
6.65116
7.22723
10.9334
941.31
2244.38
9.51298
6.01556
8.9932
6.1674
11.7429
6.78997
6.39816
7.98472
9.1548
1331.71
2944.3
10.8308
4.41689
8.30028
4.38266
10.538
6.47798
7.14819
7.87382
9.24045
7069.64
1072.5
11.1173
5.7101
6.07585
6.5728
9.3129
6.36536
6.17027
8.82085
6.74299
7497.34
3072.48
10.0331
7.44213
10.454
3.87327
10.603
6.65682
5.7023
10.0492
7.92852
4947.4
3813.09
8.29394
4.48103
7.15697
6.72823
6.98686
5.06646
5.76068
10.7265
10.3858
4795.93
833.195
9.86399
5.11454
8.76566
5.84695
9.60798
5.18716
6.06448
9.18982
9.39602
512.614
2312.83
8.66505
5.16955
8.83681
4.44695
4.01826
5.83769
7.19408
10.6435
9.00064
3318.78
3092.62
8.42236
6.68966
8.85615
5.97784
9.21044
6.15548
7.8069
10.6845
9.09157
1616.48
2021.89
11.579
7.3739
8.58382
5.18107
4.40679
5.48593
7.1473
8.76157
8.55883
2574.21
1954.74
11.6716
5.14476
7.04802
5.98418
6.03195
7.28633
5.46959
7.93629
9.2657
1247.49
1806.96
10.4627
5.1457
7.39722
6.23629
6.10738
7.75315
6.45859
9.7487
10.1572
6040.84
1701.22
9.6868
6.58926
9.76036
3.90169
6.18877
5.06296
5.75061
9.16557
6.82709
889.171
4397.69
11.3694
6.97202
10.974
3.85815
9.68381
7.95793
5.38849
8.63664
9.10673
6869.81
2198.05
10.1909
7.40927
9.49884
6.9458
6.32729
6.55499
5.63382
6.9603
9.3987
1959.16
389.012
11.6471
7.58978
6.29964
4.72175
7.23156
5.13559
7.57635
10.2163
10.3186
5068.46
2955.65
11.3848
7.6488
6.3222
6.73524
10.7976
6.78615
6.58986
6.0028
9.12744
4383.16
38.5344
8.8362
4.1605
10.5173
3.21806
7.26835
7.94387
7.89429
9.79748
8.14886
7574.28
568.635
11.4985
4.28898
10.3699
5.81078
10.6112
5.81607
6.56259
10.9034
8.85881
1041.74
4279.71
8.49995
7.07202
9.93763
5.49786
8.43402
5.80788
6.76615
7.43121
8.9691
5980.55
3377.34
10.3314
6.2082
6.06316
3.30093
8.41157
7.05044
5.90613
10.2551
9.45108
5565.48
1048.86
11.8912
7.28093
10.5538
4.56583
5.04035
6.18075
7.27162
9.03851
9.00827
435.842
3390.47
11.1778
6.45008
6.17872
4.51279
9.24427
7.15263
6.50938
10.5167
10.7314
5717.34
1894.3
11.5246
5.64816
6.78477
4.78246
7.56308
7.05573
5.34791
7.67015
9.85045
302.698
4399.47
11.1297
7.79297
7.91424
5.86912
8.39793
6.1305
6.40567
7.75852
7.29171
161.15
27.3452
10.9645
5.84589
7.29687
6.98704
6.73395
5.81762
5.88269
9.12625
9.7645
1976.65
3899.18
10.5087
5.18137
8.78127
4.11224
6.20796
6.65592
6.2468
10.713
9.07
104.39
2039.12
11.6757
4.84588
8.80615
5.75862
8.16613
7.53642
6.43048
9.96499
9.712
916.678
763.918
10.6304
5.05
9.78028
3.08136
5.28907
5.55815
7.35883
6.96042
8.05299
2187.74
2000.39
8.82207
5.01672
6.79717
4.38321
5.48171
6.6204
7.32911
9.88629
6.41836
4445.56
4539.11
11.2353
5.60186
9.40143
3.13692
9.12262
5.423
5.29769
10.335
9.90758
4616.54
1557.72
11.1475
7.31597
7.79806
5.26867
5.35713
7.62318
5.88543
8.23093
6.58358
675.507
4061.77
10.1969
7.17407
6.66505
4.63907
5.1681
6.14369
7.99137
9.9579
10.7097
2492.55
4594.54
8.00123
4.90695
9.58629
4.14727
6.76388
5.66525
6.48602
10.0969
9.04596
1902.77
275.134
10.1263
6.4517
6.84171
4.92995
4.77147
5.69622
7.10594
8.33998
10.6892
922.159
531.106
9.50725
5.89386
8.30641
5.87146
5.17357
5.41963
6.47084
6.83283
7.30017
6290.71
395.837
9.63212
6.82955
7.81398
6.98528
9.81783
5.79056
5.58497
10.103
7.86635
4015.65
1520.78
11.9638
6.86075
6.16613
3.36969
6.86138
6.6077
5.75036
6.56131
7.77957
3009.25
4029.18
9.23483
5.12307
7.58087
4.92046
7.8462
7.28311
7.12036
9.51184
9.61853
291.302
194.203
8.29512
5.58916
7.35956
6.61131
6.66285
5.41902
6.16635
9.22194
9.938
6800.35
805.272
11.7316
5.90782
10.2799
5.10771
5.01196
7.68172
7.21599
9.76313
10.0088
130.454
1567.34
10.7859
4.38786
7.73829
6.03543
9.48419
5.57537
7.34148
10.9386
9.73215
5188.02
1993.12
11.3032
4.70363
8.75311
3.71576
4.79067
6.69061
5.77411
8.29868
8.78873
3353.08
3081.67
11.8907
7.2622
10.9809
5.92055
6.17747
5.52407
7.94875
8.23037
9.12963
3883.85
2246.91
9.03868
6.51831
8.3962
5.34109
11.1353
6.02526
7.97152
9.95032
6.35895
6747.37
4217.98
11.55
5.11206
7.4098
6.18115
5.81092
7.76965
5.53315
10.0161
8.5517
2009.54
1991.45
11.5812
6.26663
10.2584
6.32875
4.15974
5.76887
5.59407
8.98621
7.40281
120.81
2163.87
10.4656
5.96285
10.4877
4.67702
8.6632
5.95894
5.38824
9.63734
9.58177
852.228
1643.02
11.3583
5.87905
10.9835
5.22751
7.71194
6.63894
7.8161
6.08757
9.52088
1723.64
331.374
9.88047
6.91887
10.9578
3.34005
4.95833
6.29079
5.81126
8.06851
9.79602
2169.42
1962.07
10.6258
6.39943
7.44608
3.41221
11.8089
6.17387
6.89589
9.05309
9.24282
5512.33
2461.76
11.6028
4.67346
10.9176
5.27626
4.5064
7.89119
5.70246
10.4021
6.89411
1800.48
2525.24
8.73872
6.89946
10.9715
4.59174
11.1544
7.42833
5.49273
6.65401
6.48355
4077.63
1790.06
10.5112
6.70479
6.95519
4.32231
4.0359
5.99068
5.46676
8.01158
10.4597
2419.71
1353.34
10.9187
5.4531
9.80486
3.4754
11.6665
7.51652
5.65936
6.1962
7.03367
4168.97
2104.31
11.7428
7.081
10.3167
5.97661
11.6048
7.0585
7.97064
9.45022
9.17105
965.422
764.555
9.3532
5.95083
6.16375
3.37899
9.16749
5.54614
6.08394
10.9447
8.29938
2499.58
878.686
9.16064
4.03542
10.2531
5.03796
9.72281
7.85867
6.654
9.25955
9.38067
607.566
1154.86
9.99766
4.72421
6.23545
6.59892
10.0346
7.34445
6.19022
7.68871
6.4591
2234.07
563.237
8.08707
5.98203
9.24702
4.06314
6.92559
6.02967
6.25122
10.5431
7.60246
1520.94
718.872
10.8521
5.7528
10.8302
5.61806
7.80537
5.4902
6.70482
9.94956
7.42334
4854.22
342
11.1279
6.31598
9.0182
5.83932
6.56391
7.35233
5.86182
8.69859
6.02654
1804.51
1694.9
8.64467
4.99934
6.34058
6.28934
10.7323
6.97212
6.48531
10.8783
10.6027
3364.39
2749.47
9.9292
6.03913
10.6399
5.16423
11.388
5.47832
5.70878
6.61624
8.58082
99.206
1656.36
9.23109
6.56456
10.6248
3.47898
6.12297
5.59956
5.89836
8.05451
7.90567
829.236
3653.99
8.26481
6.20051
6.20939
6.86479
5.56086
6.22608
6.02019
7.95226
8.0443
1257.15
877.705
11.2239
7.53357
10.2585
3.90876
5.50809
6.86465
6.44647
9.51499
7.79122
222.125
2639.14
8.6878
5.24927
9.1876
5.72576
7.53987
7.31807
7.12363
7.07338
6.36908
219.31
986.598
9.23173
6.59552
7.65907
5.74507
4.93163
5.44097
7.96269
7.67102
9.85549
6804.06
4241.53
11.289
4.14556
7.9417
4.36696
8.08674
6.37093
5.32305
6.22208
10.3189
3344.35
4773.53
8.79581
4.13767
10.4483
3.64206
7.97913
5.20838
6.53875
9.07138
10.8365
2768.99
750.305
11.2709
7.84113
10.2098
5.16026
11.3207
6.20777
5.1885
10.0113
6.06832
2964.82
1200.03
8.37309
6.10529
9.86888
3.92921
5.98754
5.34215
7.1599
8.0345
6.79316
3377.47
1393.73
8.79638
5.88926
9.66919
5.40302
10.101
5.56669
5.77219
10.6354
7.65829
2238.57
2734.94
8.84357
5.62375
7.42463
4.24123
6.94425
5.78636
7.43056
8.57656
9.85071
630.896
1807.69
9.58115
5.38833
8.05293
3.70382
6.81769
6.79803
6.49448
6.01928
10.3213
1566.99
3475.66
11.606
5.66693
10.6121
3.48353
9.58612
6.0495
5.25175
6.86715
7.89651
924.943
3576.53
10.7261
4.91961
10.2193
6.20691
7.61185
7.74074
6.51271
6.92411
7.59395
1410.91
711.003
9.59868
5.40324
10.485
3.08354
5.37087
7.66989
6.52477
9.20482
10.6185
2847.77
1178.63
8.65061
4.70203
9.51579
6.02472
6.07749
7.68224
6.3665
9.26994
10.7839
1242.6
3249.23
9.25266
5.47038
9.21722
4.95766
5.51851
5.78354
6.76813
9.36982
7.39881
480.001
2130.32
9.39848
4.67693
8.27245
3.46947
4.91432
5.7051
6.09217
9.76952
6.02188
6680.3
76.1041
9.23262
6.09763
8.88304
6.85442
5.9786
7.09091
7.16754
8.97705
9.42465
803.935
1356.25
9.39734
5.43997
10.9302
6.16289
11.4259
6.72525
7.34286
9.83133
9.20172
5449.86
4837.75
9.06107
5.88317
10.3665
6.96313
7.89453
7.00366
7.64286
7.18832
6.43737
4988.83
1752.69
11.5075
5.34792
6.72166
4.59735
6.42902
7.44697
7.00153
10.3085
8.77183
2073.39
4094.32
11.2111
4.94041
8.28875
3.27322
6.86216
5.8466
6.88979
9.7851
8.61778
606.896
483.058
8.33259
4.36606
10.6887
4.71241
7.54199
6.5827
7.34517
6.8019
6.08713
4124.09
789.504
8.82741
6.09899
8.14534
6.65069
7.81663
7.94035
6.24796
10.0329
6.89247
1809.34
302.121
10.0113
5.60926
9.37884
5.67453
4.01023
5.09988
7.12131
8.61297
6.87317
2758.19
3024.91
9.11789
6.05859
9.25454
5.20489
4.16056
6.46916
5.94143
6.62962
9.2933
4151.44
1009.16
11.5064
4.6551
7.75691
6.18139
5.00276
6.028
7.43076
10.3244
10.5047
1900.17
3242.97
11.4001
5.87252
6.7353
3.56591
7.42989
5.49823
5.48149
10.7685
8.91056
466.538
1332.78
9.76713
5.16109
9.18186
6.37852
5.55887
5.33292
5.44111
6.42349
8.30528
1791.54
3778.94
11.2243
4.42405
6.97106
6.26338
4.65154
5.16152
5.92031
9.27299
6.20698
2374.25
402.144
10.1378
6.02271
10.9915
4.93214
5.43145
5.60445
6.34451
10.7423
6.24904
7775.58
985.235
11.0282
5.0987
7.49425
4.36214
5.98704
5.31715
5.41816
10.9267
7.60015
1175.03
938.561
11.7094
7.40398
7.08448
4.04702
10.3337
7.72144
7.91703
6.74225
10.2809
14.6476
871.534
9.70251
6.02995
7.17605
3.23132
10.1723
7.52782
5.01376
7.4618
10.5445
2642.13
2859.19
10.8206
6.36846
7.01297
4.20568
11.6152
6.71718
5.92129
7.55009
9.75549
2373.29
3701.27
10.5496
6.547
6.34797
3.04388
8.6182
6.64308
5.91676
8.28381
10.4549
1166.44
828.118
10.8156
5.07328
6.28824
3.90922
5.97704
6.93314
6.12322
6.39752
9.31326
724.845
1368.25
9.13148
5.03443
6.17048
4.67162
8.8705
5.0767
6.67275
6.65462
10.387
1027.23
1607.13
9.50776
7.57083
9.74514
3.96318
9.92665
7.43701
6.98743
6.70912
7.93213
3076.25
635.089
9.53775
4.80801
8.77984
3.59002
5.10845
6.77529
6.10581
8.19104
10.8925
644.463
1711.21
9.17938
5.6478
9.5046
5.60587
10.6841
5.18346
6.89747
10.2767
7.8578
1150.38
105.431
9.35204
6.43817
10.2971
6.49964
7.15575
7.88401
6.03742
7.66432
6.31851
1411.37
54.6555
10.9487
7.20734
6.42434
3.20431
4.93442
5.75627
6.734
9.63943
8.01874
3058.29
2151.32
9.15602
5.83558
8.92702
4.47683
5.74707
5.0122
6.42695
8.15449
8.99331
7227.01
4976.5
9.95245
6.09979
8.77498
5.76752
7.44869
7.50542
7.81237
9.05147
10.7355
198.259
263.557
9.39403
6.67934
10.1346
6.14776
10.5946
7.60906
7.00393
8.75933
10.5197
7171.02
1036.32
8.70785
6.13844
10.1953
5.10005
5.27053
5.77477
5.12247
8.33082
6.30685
6894.63
1596.94
11.2119
6.8206
6.3653
5.70185
11.874
6.2199
5.39601
10.1417
7.38393
2960.53
340.852
9.4271
5.07275
10.7632
5.77662
11.8462
7.90324
7.41184
6.27519
6.27941
932.785
4212.64
8.7742
6.31166
10.772
5.80386
11.4846
7.94478
5.9085
6.64184
7.88478
4010.19
1805.05
9.13499
5.6515
6.78016
3.43779
7.11389
5.72892
7.13095
7.59095
6.6641
1699.4
1896.52
9.03218
4.82223
8.71758
6.20799
10.3709
6.04715
7.45996
6.62548
8.2958
2258.98
2018.3
11.1803
4.49595
10.7067
4.63166
4.65811
7.43236
5.49937
9.60275
10.0242
4824.72
840.584
10.7742
4.04155
7.81029
4.03165
11.8018
7.74055
5.89801
10.5529
10.8248
4433.28
899.222
11.7112
7.05062
8.71078
4.041
5.19473
5.86812
5.40523
6.58853
6.93528
7556.48
983.498
9.79302
5.92783
9.3279
5.69933
5.63578
7.87003
6.82381
7.04932
7.3726
676.233
4184.85
9.02607
6.53405
9.72513
4.03859
4.38502
7.48262
5.94356
9.42653
10.5092
3260.24
4217.02
8.09455
4.36807
6.31116
3.47968
11.8249
7.90782
5.75818
9.49658
7.05817
3275.66
1923.22
8.31477
5.66775
9.14442
4.78739
4.21365
5.11526
7.41418
10.2338
10.5419
4867.6
3186
9.07456
5.42592
6.73457
6.57778
8.36705
7.26697
5.85296
10.7111
10.9055
4944.27
3897.09
8.413
5.12066
9.89553
5.15359
8.96509
6.43429
6.57056
10.5481
7.14744
1617.18
1064.33
11.2249
5.01253
6.58764
4.96515
4.96258
5.21457
5.21623
10.3067
6.852
5702.86
994.954
8.08262
5.99301
9.20272
6.34017
4.09346
6.61265
5.28448
10.2063
7.20018
5529.96
2953.36
10.8775
4.65352
7.9295
3.66912
4.55807
6.41993
7.19484
9.98037
7.69162
1013.05
2159
10.0577
6.76676
6.64493
5.16837
11.2289
7.0694
5.96735
9.62947
7.94508
1271.68
1148.79
10.0319
5.09675
9.7045
6.54562
10.8502
6.50546
7.29247
9.99661
10.464
130.298
4650.68
11.809
6.03364
7.14865
5.79068
7.12224
7.07328
6.23397
8.98915
8.17827
585.544
1352.54
10.2066
4.2531
6.73333
6.09691
6.72979
5.1203
5.57639
6.45344
7.99019
6251.37
467.159
11.7909
6.20389
8.295
4.63365
7.97747
5.60153
5.66329
7.41658
9.56009
538.939
977.761
10.1674
6.82165
10.1113
6.3465
7.08866
6.87572
7.52248
7.13797
9.02532
6339.47
4956.74
10.1992
4.35103
7.93791
5.76036
4.9997
5.04202
5.2691
9.2125
9.01387
367.855
90.9483
8.44098
7.44584
10.3474
3.47874
4.50092
5.75971
5.51721
6.79497
6.76243
180.675
4375.01
8.87312
7.93233
10.1419
5.09558
9.8691
6.81467
5.5005
6.496
6.74394
6680.09
215.745
10.7319
6.04606
7.97977
5.61586
8.94931
7.68115
7.23558
7.30539
10.6294
1328.13
3231.91
9.4937
5.18339
8.97844
4.87463
9.83297
5.91602
6.008
8.58702
7.6403
454.171
1761.77
9.25592
6.38756
9.08732
4.95721
4.48138
5.87928
6.88651
6.03035
10.8914
1517.86
3704.49
11.0473
4.17234
6.95826
4.28631
6.969
7.14763
6.42124
8.36001
7.45253
1495.43
255.487
8.25237
5.78317
9.7452
5.08335
8.52782
7.61563
7.69446
10.6968
9.45666
1464.56
2339.95
8.7285
4.69419
6.23709
4.10275
7.07777
5.04113
5.1209
6.33168
6.22304
2599.62
1135.72
11.4276
5.15289
10.6286
5.29655
4.36837
6.98817
6.14053
10.6155
6.6981
149.372
1392.84
8.71671
7.20864
9.90321
5.29828
8.48074
7.6674
6.31894
9.2768
7.99327
2101.97
2325.38
10.9115
5.72872
7.53865
4.5633
9.58952
7.22886
7.28315
7.0664
8.9917
6162.14
4311.17
11.6281
7.70195
6.86791
3.41845
6.94699
5.54385
7.51712
6.76683
8.12802
340.226
1380.22
8.46001
5.80777
8.07854
3.79433
5.79624
5.37104
5.50485
9.84622
10.9396
6333.42
1223.42
8.69766
5.36877
7.56261
6.11945
9.80707
6.75966
6.54072
8.96048
6.53604
2459.84
612.956
11.175
5.44364
9.00459
4.59366
11.9967
7.60597
7.26683
6.69518
6.25866
1305.18
638.859
11.3765
7.55354
6.37857
5.95383
4.41704
5.50769
5.84542
9.43932
8.37195
1782.75
3442.22
11.2397
5.86399
9.89027
3.00032
8.60222
6.86736
6.17414
9.88931
9.58921
5382.48
2213.65
11.8431
4.20448
8.28901
6.1938
5.15925
5.5253
7.32631
8.78907
8.2769
3187.5
1590.94
11.3939
4.74059
7.10691
4.22253
4.78645
7.81711
7.67837
9.64126
6.12788
5870.16
704.831
11.865
4.07386
7.16871
3.37484
6.13865
7.3103
5.33368
7.44331
6.70298
373.752
2112.47
11.1326
5.77873
10.1003
3.49456
8.14429
5.92026
7.92422
8.02826
10.0944
4334.27
3454.62
9.7283
7.19707
10.2924
3.26502
6.19117
7.51155
6.53866
10.9289
9.60527
355.529
4921.81
10.2101
5.87033
6.50111
4.57027
5.20115
5.5032
6.49657
9.11804
10.9138
564.797
352.817
9.41378
5.27485
7.96915
6.80589
5.56461
6.78265
7.37093
8.13162
7.7722
7692.78
427.761
10.9004
4.69669
6.10953
5.79327
6.06199
5.22012
6.91974
10.0885
7.88923
4327.05
892.018
9.08677
4.21284
6.28637
5.53913
4.5739
6.48567
6.29914
10.2906
10.0094
2240.06
1586.6
11.5678
5.2084
8.11874
5.72063
11.5149
7.21317
5.12835
10.6125
10.9881
7827.2
1552.08
8.35586
4.31529
9.27083
4.8691
10.6275
5.79696
5.18992
9.42557
9.32415
1010.95
161.795
11.419
4.44994
7.10236
6.46924
7.24904
7.72059
5.15227
8.8645
6.55852
821.16
3912.2
10.0469
4.42583
10.6403
5.91608
10.3978
7.64183
6.97207
7.80443
6.71205
2190.43
154.111
9.99367
4.25444
7.37328
3.92844
6.21505
5.14138
7.49893
10.9835
9.7261
15.0831
813.566
10.9602
6.31481
10.0191
4.17421
8.95759
6.2776
5.98458
8.72185
6.44305
1851.56
2709.52
10.4156
4.20807
8.10415
3.41485
9.59021
6.525
5.27259
8.45598
7.30981
2378.17
2344.18
11.5709
6.08568
7.84254
4.31285
8.51329
6.37692
5.12406
6.78596
7.90641
1364.51
4628.62
10.7374
4.46174
6.07238
3.22767
9.55694
7.32297
7.3734
7.36217
10.6813
4101.91
1170.97
11.2587
4.52302
6.13206
6.16535
8.20108
7.67099
7.74701
10.0689
7.50444
3659.33
116.969
9.815
5.51167
10.3425
3.96048
4.67706
7.8855
5.40562
8.0453
8.45507
5692.21
705.741
8.11227
7.55159
9.42394
4.75144
4.64377
7.87011
6.82049
9.80324
6.1086
3456.32
4795.15
11.9027
7.52052
9.8764
3.25847
10.1246
6.4659
6.84287
6.86644
10.2718
27.3421
3575.92
9.47169
4.97362
8.51289
5.65473
8.81035
6.95898
6.54644
9.8287
10.2806
362.904
872.467
11.7504
4.19438
9.26032
6.57911
7.77423
5.12102
7.18836
8.82863
10.9363
1205.99
4874.32
11.8043
7.4398
9.69581
3.78667
6.41005
6.73762
6.14789
9.18026
8.36994
5762.78
2389.14
11.2004
4.91162
10.7605
4.31181
10.865
5.18636
5.552
7.50866
9.93481
3786.71
2604.35
11.1331
4.45183
10.0148
6.24603
10.6961
6.00281
7.32355
9.20238
6.44436
7551.6
1661.48
8.39515
5.62628
9.24741
3.37396
5.45723
6.46672
5.28474
9.45725
7.97882
7912.28
3017.81
8.91366
5.41265
6.97049
3.8004
4.49518
7.34657
6.20338
6.40496
9.95645
6590.41
4220.82
9.8821
7.46948
8.93439
6.68525
7.88461
7.97087
7.02387
6.71846
7.63844
306.707
1218.39
10.4957
7.16663
9.94209
6.85671
5.92024
6.95963
6.83808
8.08092
6.76972
3283.99
1452.28
8.9957
7.49894
10.6425
5.58161
6.79857
6.50905
7.85292
6.92623
8.89606
3096.17
2706.51
9.5901
5.42198
7.09996
4.59963
6.77694
6.74214
5.73624
7.25304
10.4214
875.187
4611.44
10.0149
4.69397
6.20346
3.32243
4.30666
7.46013
5.15948
10.7284
7.0176
5379.19
2627.68
8.91141
4.42029
9.22021
4.33101
10.6282
5.74385
5.11415
9.81372
7.26399
2268.81
994.627
10.3896
4.41819
10.8494
6.12091
4.11323
7.89652
6.50732
7.5276
10.2203
2692.75
458.716
11.1692
4.12868
6.22038
4.49838
10.8296
7.43051
7.73634
7.88502
8.33631
279.614
835.296
8.85829
5.39442
10.0625
3.12939
4.63607
7.64303
6.8269
7.9578
7.1808
160.444
433.341
10.3291
7.88392
9.11332
3.35497
9.48134
5.87013
7.69003
7.7547
7.04306
1951.04
1010.63
8.15357
4.69558
8.78882
4.87718
8.90403
7.93347
6.36476
7.84481
10.436
6618.78
2239.17
8.28649
5.17695
9.80585
5.84419
5.46444
6.65044
7.97096
8.71809
10.8069
1205.39
563.248
10.2462
7.71116
8.28946
6.99443
5.46068
5.32692
7.06835
8.79718
6.43785
3478.7
2353.47
8.30936
7.26415
9.63414
3.86805
4.41941
7.65013
7.09754
6.01373
7.36701
1077.42
959.048
11.6248
7.4672
10.9014
6.93522
6.78413
5.92897
6.28926
6.52135
7.597
1404.3
1749.87
8.22342
4.85326
10.0806
5.49535
9.8216
6.63361
7.55211
8.91014
10.5491
395.254
3126.96
8.07165
4.15676
10.9289
6.39722
11.5288
5.21199
7.73664
9.48373
10.7038
815.822
1922.87
10.928
5.28196
10.0767
3.54766
9.64588
5.99895
5.89875
8.13461
10.3872
868.537
4312.18
10.0081
7.59696
8.79393
5.03625
7.09319
6.25825
6.79032
9.99479
8.86317
3598.93
2214.07
11.8791
6.84256
6.3249
4.15086
11.1916
6.01704
7.45976
7.69076
10.2873
4407.37
102.843
11.7162
7.63788
6.75655
4.18585
11.6665
7.41296
5.94229
7.49257
6.13312
521.492
4504.62
10.3781
6.68088
9.52317
3.96484
5.59493
5.80928
5.84003
8.95688
9.16158
4246
4753.51
10.4485
7.54057
9.92854
6.79545
10.7494
7.50708
7.50317
6.11928
10.6369
5961.67
2327.6
8.95381
4.57079
6.69969
4.9395
10.4538
5.59402
6.00101
6.59627
10.6039
5696.16
3459.86
8.95901
5.999
10.7312
4.55941
11.7876
6.37652
7.68151
7.78828
8.57857
551.469
1933.84
10.2292
4.0308
8.82135
4.23922
6.9068
7.30906
7.46206
10.5049
9.75825
1416.9
830.288
9.09282
5.34228
6.60451
4.24338
10.6592
7.3134
6.90006
8.87046
6.53995
1894.06
654.549
9.1599
4.12802
9.11624
6.07089
9.38309
6.78072
5.87512
6.98862
8.32583
3443.8
117.252
11.5164
7.96622
6.33386
6.54053
10.3642
6.55444
5.26018
9.06982
10.8596
3911.39
3628.27
11.6268
4.87107
8.67798
4.7527
4.62198
6.05798
7.7952
10.812
9.90251
2361.12
3603.67
8.25853
5.17473
9.48959
5.80674
5.98383
7.09544
5.91159
7.33344
8.45359
1937.89
778.103
9.00987
6.00319
8.80182
5.0943
10.4045
5.16892
7.64868
9.00229
10.7451
631.316
307.97
10.6347
7.29452
9.24072
4.66973
6.73282
5.09272
6.27878
6.27181
8.7312
1060.92
1652.2
11.9835
6.75166
8.12141
3.63449
10.5991
7.50774
7.60366
7.19675
9.00763
488.634
4843.45
11.1798
6.585
9.05826
3.79879
7.15631
5.97755
7.697
8.90742
8.94445
6017.17
1536.86
10.4112
6.50115
8.79712
3.9039
4.28111
7.33306
5.09902
7.03902
10.8191
4467.51
1076.14
8.48411
4.817
8.47406
3.37554
4.55743
7.79453
5.40728
8.19698
8.09284
1561.22
1573.64
11.2028
4.83518
10.3551
5.31832
9.94292
6.19032
6.55086
10.2918
10.9578
4856.32
1704.31
8.9424
4.35353
6.56443
3.79513
8.82342
7.88914
7.20644
10.7328
10.148
2357.96
913.379
10.4914
6.5992
8.92351
4.92489
11.8779
7.02633
7.90109
6.07103
9.53669
7415.56
3879.01
11.4153
4.60477
7.0747
5.59997
8.83388
5.79265
5.41853
8.217
7.50126
6250.04
4000.43
10.7173
7.70283
9.92068
6.50116
6.86562
5.46727
5.02469
7.59038
10.9916
1881.71
3190.16
9.75145
5.39347
10.1618
5.32153
8.78373
5.06677
5.48848
6.40316
10.4093
4870.59
4399.98
11.2587
4.23879
6.1658
4.62284
8.5639
6.43406
7.4036
10.6132
9.89471
7192.64
1943.34
8.47775
5.7807
9.96247
4.31797
7.18283
6.82355
6.28888
6.07094
6.32798
2160.93
378.934
8.42556
5.67612
7.0481
3.7966
4.54903
6.63189
7.8517
6.663
10.2301
3469.72
963.169
8.8064
4.27202
7.92385
6.16516
10.9574
6.85685
5.98944
7.78161
10.2986
757.354
576.108
11.4883
7.99769
10.477
3.7489
4.09202
7.33173
6.03927
8.88413
8.85723
7623.08
4568.09
10.13
4.53128
7.73102
3.74625
6.65296
6.38601
5.2036
7.80187
7.98702
1987.65
4460.24
8.43366
4.73449
7.46557
3.51637
4.37696
6.85608
6.39749
9.37273
7.39435
6259.42
4802.7
10.7889
5.29808
7.34078
3.42242
6.72686
7.18409
7.76254
8.88095
9.57265
6895.41
4588.75
10.7303
4.11062
7.10792
4.40291
5.83177
7.98261
7.08677
10.2202
8.19034
4637.11
4492.28
11.5785
6.25006
8.73286
6.60297
5.36303
6.99671
5.11803
10.374
10.7682
733.468
1390.48
8.59889
7.74702
9.84615
5.65258
8.11356
7.7986
6.52695
7.03397
9.15407
1358.59
4944.63
9.21244
5.0287
9.57316
5.68919
10.1169
6.77528
6.12171
10.02
7.42563
2064.21
1675.27
9.68756
5.17179
8.60614
5.49959
7.44663
5.82138
7.19398
8.43468
6.79355
5581.44
669.862
10.8952
6.59535
6.59639
4.70098
7.89189
5.79084
6.81579
10.116
6.30907
3354.47
4500.48
9.94175
5.63426
7.45945
5.26231
11.0485
7.30304
6.75164
8.67143
7.03927
1517.85
490.488
11.9078
5.30028
8.51856
5.33257
7.80374
6.70998
6.9053
10.9176
10.4138
1667.75
658.569
9.31663
4.47899
7.57324
4.053
9.19154
7.63935
7.3676
7.75051
6.23436
3727.12
2773.91
8.63312
6.66832
9.23583
6.77845
4.4355
7.17454
5.82048
7.40931
6.55093
109.382
891.931
10.9142
5.67365
6.84917
3.72031
8.60737
6.23873
5.95402
7.93561
10.3053
925.724
3743.3
11.454
6.90291
9.9002
6.03198
5.77864
6.43657
5.72709
9.37796
10.3394
2105.55
1030.1
10.6828
4.19628
8.03851
5.96624
11.7338
6.85734
7.23708
6.76656
10.5693
95.9769
2414.92
8.52969
4.5524
6.42117
6.72227
5.88782
5.35289
6.47378
7.62494
9.85522
2380.14
2823.92
8.46643
7.66852
9.91555
5.65326
10.9033
7.5375
6.29395
10.1361
7.02886
574.259
4146.03
9.76623
4.17415
10.1114
5.89125
4.81237
6.79519
7.60203
7.29822
10.5415
3468.81
1974.73
11.2895
5.74976
10.9693
3.15603
11.9487
5.61522
7.42759
10.35
6.37516
1022.29
28.7567
11.9168
5.40677
7.35676
5.10302
5.33644
7.66893
5.04403
6.31625
10.8649
4711.03
2349.91
9.80738
5.60708
10.2812
4.13303
6.01567
6.70857
6.21885
6.04035
10.9545
5878.1
1606.19
9.45867
4.58756
8.94107
3.98114
4.54793
6.71264
7.64639
6.30308
6.39989
3374.82
2730.99
11.4259
5.6927
10.0493
5.83086
8.77307
7.93961
5.99802
9.75569
9.87634
1165.25
1285.19
8.29606
6.98603
9.88651
3.8721
7.78725
6.00086
6.17363
10.1519
9.49457
4759.6
1334.68
10.6489
5.47635
8.29762
3.81065
8.84314
5.9105
5.16449
8.22632
10.4457
113.676
3833.67
8.31901
5.66348
8.80802
3.71838
8.13322
6.707
6.62663
8.72327
10.4105
3497.67
1260.54
11.63
5.41841
6.36414
3.39606
6.70796
7.67917
5.67311
10.9996
6.92056
5686.98
292.976
9.95882
4.78966
6.35251
3.75748
4.28953
7.18545
5.57315
6.03436
7.11395
673.979
1400.15
8.70489
5.54752
10.2895
5.94234
5.01165
7.12286
5.01856
8.43737
9.56298
4749.3
3969.48
11.3923
4.63538
6.6107
5.86528
6.41642
7.79544
7.22611
7.98681
9.38868
202.885
1213.29
8.67734
7.35701
10.6174
3.1679
10.6489
5.59142
7.81921
6.35833
10.7447
895.357
4685.39
11.8178
4.17793
8.76246
6.41433
11.512
6.70479
7.36383
9.77825
10.5411
3039.49
2911.56
11.7099
6.18723
6.1513
3.32752
4.6821
5.79554
6.79943
10.0093
7.28245
484.675
896.874
9.23393
6.05514
10.5338
6.31672
6.08152
7.67357
5.75581
6.79258
6.04995
320.337
1083.39
9.52215
4.32555
10.5842
4.10964
5.85628
6.96911
6.75138
6.02918
8.00674
3737.53
4445.64
11.3484
5.70091
6.22798
3.35781
4.0551
5.62569
7.18751
7.70054
9.69602
1162.65
249.477
8.72364
4.89076
7.68795
3.01414
11.35
6.3762
6.79807
8.88279
7.13986
1771.36
99.9471
9.73776
4.57375
10.7628
4.87553
5.68377
5.57503
5.92153
7.46956
10.3543
2030.63
3370.55
11.1892
7.71079
7.56161
3.80992
7.81833
7.56039
5.93056
8.06736
8.4048
3345.07
939.328
9.39712
6.60193
10.1383
4.21073
10.1024
6.96796
5.75138
8.28749
7.37475
5910.97
621.796
11.4951
7.36202
6.21444
4.62463
11.3066
7.89786
5.88837
6.64039
9.75929
4784.77
790.523
10.9537
6.45742
9.22846
6.48644
6.2895
5.65328
7.22021
7.70269
8.70448
1834.19
1697.11
8.88872
4.86031
8.97387
5.0943
8.9137
7.20758
5.62816
6.88546
8.72481
2237
564.888
10.6358
5.279
7.13543
6.61114
10.2907
6.22906
5.9319
9.75404
7.14928
1172.95
2026.06
11.5069
5.42132
10.1744
3.15458
5.18461
5.33432
6.80682
10.5537
6.36268
1735.84
489.629
11.1806
5.76436
9.53195
4.12603
11.4216
7.0523
5.09149
7.77603
10.0998
6571.86
2776.27
8.77591
6.71481
8.75844
6.18742
7.90049
7.99228
7.55476
7.64272
6.83102
2438.36
4270.85
8.4329
4.83144
8.02541
4.17113
4.87645
5.39938
7.09636
6.70676
8.89525
137.226
3397.86
10.6709
4.11393
6.6016
4.69957
6.65605
5.54516
7.34104
10.3757
9.74803
226.179
2266.53
9.09784
6.1936
9.814
3.24163
6.56577
6.78984
7.65957
8.66365
10.1667
216.758
131.015
9.70042
5.56534
9.59311
4.26621
8.93306
7.59975
7.64345
9.9138
7.99106
5472.07
1517.07
9.16006
7.33946
8.3763
3.02446
10.9803
5.50166
5.00214
8.93249
10.9283
6331.35
1357.19
9.0617
6.45755
9.84292
6.86603
5.04607
6.18576
7.36025
7.42117
7.1308
3509.56
542.135
8.02605
5.63293
8.59176
3.22368
9.86845
7.56282
6.45625
7.63498
8.43094
7708.97
2223.73
10.0175
5.64313
9.41887
6.0274
8.00976
6.97789
5.76037
7.53346
6.75673
1170.87
2205.64
10.1836
6.68105
8.23817
4.9529
5.13526
7.68354
5.73642
10.0709
8.88111
194.241
1203.1
11.2085
4.1372
8.1728
5.73931
10.2644
5.16292
6.70928
7.93095
7.98673
978.046
4843.46
11.314
6.5945
9.78657
4.96211
5.85034
6.29175
6.65002
8.29972
8.20662
1453.47
1868.38
10.9372
4.99005
7.02644
3.69312
7.33366
6.10214
7.13938
9.65993
10.0533
2979.52
708.446
10.7493
5.57175
10.2776
3.39669
5.82368
5.03714
6.78639
8.69089
10.5924
4626.86
1163.97
10.7457
4.95295
9.51535
3.42725
7.40895
7.90379
5.27181
10.1702
7.67389
836.451
169.672
9.12183
4.3724
10.3446
3.38189
4.31979
7.8952
5.24025
6.79208
8.69984
824.434
1523.52
9.93209
4.71255
10.8132
6.14345
6.80045
7.79566
5.56856
7.72476
7.93013
952.643
3020.39
8.88524
6.19553
7.59237
6.368
7.19217
5.47254
7.40989
7.06397
6.40287
1670.67
108.266
10.2215
4.37962
7.44643
6.68109
5.48778
7.79065
6.06495
8.01581
8.78428
782.576
13.2582
8.16616
7.16554
9.58875
3.37647
7.02941
6.16604
5.27825
6.7146
7.86796
1530.31
1974.71
10.2345
5.72703
8.71854
5.34331
5.62434
6.35514
5.16148
7.91725
10.0655
4767.38
153.7
8.73361
6.67279
10.6554
4.09746
5.98889
5.7136
7.77709
6.06965
10.6993
278.668
888.347
9.77259
5.60254
9.45683
5.13883
5.29554
6.09384
7.21272
10.2036
8.83606
6994.83
870.811
9.52879
5.05713
8.1066
3.46436
5.78241
6.32132
6.85694
6.61454
8.42864
3031.42
1714.98
9.41851
4.58855
6.01538
3.6929
10.885
6.81221
6.6181
8.55554
7.84443
2571.38
435.164
11.0186
7.66818
7.40425
3.17389
10.9868
5.41019
5.73551
8.44896
7.75419
3602.05
4658.72
10.2611
5.93998
8.24125
3.83426
7.5944
5.09973
6.70683
6.11924
10.2877
6190.3
292.059
10.0205
5.03074
7.15179
3.29257
4.14734
5.31581
6.77649
8.41412
9.10783
5046.84
1647.85
9.60753
4.65817
8.01311
6.12167
4.68281
6.52957
6.11348
7.95055
9.34454
3359.97
726.268
8.43972
4.91457
10.7674
6.83555
7.28924
6.01805
5.41297
8.55876
8.52231
5393.73
628.326
8.7838
5.0704
8.50942
3.15922
4.46522
6.13474
6.82156
7.69156
6.18923
3464.34
1501.47
10.2251
4.84694
10.7954
3.01213
8.45467
7.00485
6.01164
8.31839
9.58677
90.019
3612.68
11.2238
6.44612
6.92937
3.01458
5.74516
5.21827
5.96098
10.8066
9.12905
669.346
3377.36
9.64485
4.13065
6.48551
4.7237
4.63587
5.51388
5.09526
10.3771
7.82301
2699.67
3614.92
8.68529
5.32647
10.5495
5.88622
5.4951
6.15482
5.32217
8.09932
6.72183
831.586
1081.94
10.031
4.79327
6.14799
3.80193
4.28289
7.91723
5.81398
10.6785
8.00777
2858.15
1141.31
11.6095
6.94944
10.1937
6.01587
5.1777
7.33546
5.86498
6.6325
6.94592
2339.43
1042.85
8.31674
4.00467
7.04165
5.58231
7.91111
6.96456
6.53003
8.06757
9.08983
3566.42
4171.01
10.633
7.10146
10.7066
4.76596
5.45987
6.17458
5.66004
8.02276
9.38961
1158.7
3502.42
11.0398
7.45694
9.62342
5.38975
5.84888
7.58238
6.31757
6.76934
9.19614
5652.44
510.776
11.8446
4.53112
6.10901
5.87428
11.1135
7.83977
5.64484
9.02039
10.9547
2464.58
306.972
11.1316
7.21746
10.4702
4.4658
7.7836
7.23303
6.31187
6.84578
10.4961
1985.92
3217.8
8.47537
5.49405
8.505
3.54866
10.1347
5.37147
7.94828
10.8403
9.92029
44.5965
586.392
11.8979
5.72923
8.13902
6.85878
9.84545
5.06515
6.59781
7.48049
10.4048
7544.74
803.739
10.2876
5.46825
8.0227
5.47831
8.4836
5.84023
7.32077
10.2948
7.01969
3002.5
2020.31
8.4356
6.89028
9.4015
4.67253
11.1596
5.36728
6.32519
8.91471
8.83536
354.748
1169.48
9.70727
6.80262
9.03973
6.52555
11.215
5.60957
7.70682
9.24351
8.99456
2438.43
131.436
9.22705
5.10573
6.63821
5.17316
8.8514
6.16844
5.97781
9.05769
6.27242
1292.63
134.186
9.17394
4.73816
8.66685
5.60431
5.29945
7.54538
6.84513
10.7623
10.4696
1144.28
227.954
10.298
6.10876
7.94056
3.25594
6.78272
7.38697
7.48905
7.38872
6.08922
2964.78
1061.51
9.79663
4.66334
6.27235
5.61933
10.9966
7.58829
6.87046
7.31758
7.62515
1501.18
4090.55
9.01777
4.13629
10.7519
5.21061
4.21781
6.69299
5.21006
7.23195
6.25424
6726.63
1141.15
8.04647
4.31289
7.59584
4.68787
5.14768
7.79045
6.54204
10.6432
8.78953
1389.64
2491.26
8.03469
4.28735
9.85646
6.69015
6.93579
6.73984
7.27981
6.35964
8.72182
2415.89
1181.34
10.107
6.05184
7.87395
4.40425
9.55111
7.62401
6.14276
8.27677
8.02433
4518.04
513.324
8.49951
5.22714
9.93268
5.71167
6.12108
7.81089
6.5995
8.59886
9.66443
2210.31
4641.76
9.85945
7.60089
10.8671
3.11167
4.81481
5.80146
5.01674
6.22264
6.00955
2181.3
951.893
8.29276
6.63586
9.91179
4.96211
6.32384
5.60039
5.88767
6.24673
8.44658
235.006
4941.37
9.84829
6.68256
8.21665
4.59463
9.2614
7.93829
6.97312
7.53326
8.73165
3269.81
522.389
10.3521
6.21686
7.04513
3.17119
5.02662
7.54741
6.79817
7.29804
8.61583
2274.65
1079.25
10.3685
4.17508
7.75376
6.08409
5.77018
7.23321
6.96621
9.78996
10.5527
7820.21
274.221
10.8092
6.36223
6.78148
4.12624
11.5165
6.41301
7.48652
8.16848
10.6836
7013.75
1275.05
8.55237
5.0072
10.7531
5.05069
6.62747
6.9884
6.33503
8.60983
10.6064
2571.55
3588.12
11.6975
5.61714
8.72744
3.71466
7.83009
5.02564
5.6521
7.55494
9.17339
1827.66
4300.44
8.72172
4.98767
7.83615
4.57917
6.40331
5.8724
5.65418
9.8085
6.96688
7040.09
2255.23
9.34009
5.27915
9.05813
4.83051
5.08584
6.86809
6.31908
9.34628
8.32239
4006.42
3512.73
9.21497
6.93617
10.1381
5.40506
6.32932
6.32414
7.2069
6.44305
8.72705
1026.83
1310.52
8.01699
6.95318
10.1179
3.38959
5.369
7.04154
5.28826
9.13292
6.7321
1793.97
197.478
10.9098
5.09613
10.5752
4.48529
9.56076
7.41839
7.45118
10.7704
8.9204
359.705
1583.79
8.88569
4.37952
8.05023
4.75493
6.39983
5.1997
6.14566
8.77235
9.6567
1333.38
1114.54
10.5091
5.45242
10.0899
5.38487
6.6584
6.86366
6.74727
7.13897
7.65302
1996.51
1183.99
11.4351
5.33111
7.85372
6.5007
5.11925
5.0913
5.68434
7.86438
9.2041
3734.97
1734.81
11.6675
6.46445
9.22713
5.95586
7.65616
7.32302
7.17452
7.95464
10.7607
1270.95
39.7568
8.99873
4.79944
6.33994
4.50619
5.99302
7.42646
7.97088
6.90338
8.04676
1817.74
1803.12
8.93703
7.56873
10.367
5.88276
7.90832
7.65527
5.58695
9.94375
8.63248
4545.21
1684.19
11.4597
6.04855
7.2609
5.09667
4.53286
6.8115
7.99488
8.91108
6.68567
1262.73
101.031
8.80667
4.54549
10.0508
4.26839
10.7487
7.97443
6.96967
8.73369
10.7042
2627.94
953.772
9.55981
4.78401
10.0454
6.25271
8.83025
7.07973
6.47356
10.0695
6.84249
1327.02
854.764
10.4323
6.06783
10.7936
6.83618
11.2414
6.29121
6.45239
7.14574
8.4949
4451.73
904.228
9.86122
4.46976
7.77857
3.11386
7.99387
7.17058
5.94729
7.42391
9.67665
1015.56
3134.45
9.56527
7.22536
9.40241
6.69564
4.06877
5.68715
5.87331
10.8584
7.01304
5219.91
2140.03
10.0336
4.99867
10.856
3.32476
6.74029
7.14815
6.23731
8.60476
6.57742
6292.63
4382.37
11.279
6.96096
6.53081
5.24255
5.00681
7.71495
5.78021
6.18389
8.10386
1634.58
3784
10.4492
5.4857
10.0884
3.45278
7.56487
6.12288
5.16102
7.11567
8.07541
2710.42
2474.1
11.5362
6.60471
9.58033
3.39076
5.82156
6.24496
7.29555
10.2846
7.09858
6396.82
2507.74
11.3856
5.66402
7.39851
5.78233
4.71677
6.49351
7.0516
10.1529
7.78194
3095.83
971.78
10.0835
7.46504
9.12471
3.51649
5.67061
5.0371
7.3635
10.9205
6.85064
7021.23
370.632
11.8538
7.5697
9.6749
6.25343
5.22381
7.79247
6.62866
9.02467
9.72132
4886.64
1023.06
10.1748
7.24893
7.04656
3.05087
10.6961
6.58784
5.02249
7.24562
7.12704
7415.55
1740.72
9.78781
6.86634
8.80904
5.23872
9.84438
5.44197
7.87057
6.26238
7.96125
2498.29
2869.75
10.4247
6.47898
6.63029
5.1947
5.28182
7.11809
5.02958
10.1219
6.40905
6197.63
4464.95
11.0255
6.58678
7.82185
3.69959
10.2522
5.44111
5.80692
9.20653
6.158
776.311
1909.03
11.755
6.25058
7.19886
5.28723
11.8386
6.84644
5.66171
9.05528
10.621
3615.18
1478.66
9.66646
4.22526
9.78581
3.83456
5.65218
5.19964
7.08999
10.1185
8.62825
3947.26
2921.44
9.06673
7.65986
9.61396
3.10386
9.42026
5.51148
7.10618
6.61829
10.5543
2237.95
2437.47
11.6721
6.69489
9.68386
4.99868
4.88288
7.54168
7.24172
7.03977
9.57816
2953.06
1995.06
9.29378
4.53494
7.12442
4.97134
4.15999
6.41551
7.41372
8.62346
8.7731
4586.65
90.6112
8.60457
7.70485
10.0898
3.53159
4.33181
6.4144
6.28883
10.414
10.3105
1203.59
3854.21
9.01723
6.26416
10.5828
4.12191
4.43484
6.00789
5.05199
8.71614
8.14536
2198.61
4110.32
11.5077
5.05963
9.63942
5.3007
4.69376
6.91457
7.70492
6.47018
8.62258
6269.03
919.317
10.9302
4.8968
9.98853
3.72665
9.39179
6.59918
6.77155
7.18865
10.3041
4984.85
2591.76
9.5097
4.49492
10.5621
3.50852
9.67808
6.32134
5.70346
10.2016
10.3328
6935.1
943.33
11.2343
5.2767
8.38226
6.53592
6.99461
6.24596
7.24633
6.8411
8.52703
1006.94
824.74
8.17174
4.26797
9.68907
5.7703
9.53402
7.88127
6.35588
10.7119
6.80858
3915.45
2021.81
8.89425
5.05342
10.7144
6.94616
5.11225
5.82269
7.38116
7.85737
7.17447
5178.78
1340.46
10.2031
5.48682
8.97161
5.52772
6.65333
7.81102
7.08045
10.5879
10.1549
5680.36
913.653
8.4711
6.70048
10.7146
5.03872
5.13287
7.04573
5.36742
6.11141
7.17993
5228.33
915.569
11.4249
4.98043
8.48053
5.6239
6.63821
5.6583
6.84865
10.1464
7.30305
5157.17
1894.74
8.00481
4.63915
10.8664
4.12196
4.25409
7.47463
5.56704
6.90351
7.79093
3131.03
1554.27
8.23848
5.66717
8.32397
3.38679
7.62726
7.62732
6.139
9.86208
9.62815
7414.14
2620.36
9.82893
6.01785
6.74647
3.4026
6.24857
7.00522
5.84336
9.22203
9.62794
838.746
1854.74
11.2087
4.87159
8.0441
5.92777
11.1561
7.27592
5.79354
9.85424
7.0711
1494.44
3109.73
10.8581
7.50646
6.95004
3.60467
4.19069
7.47645
7.85299
7.45424
7.73339
305.188
3109.55
10.3543
5.16284
6.44962
5.85738
5.88359
7.47815
5.98851
6.08497
7.38811
2017.33
2769.91
10.1758
6.55938
6.92957
3.03338
7.84343
6.93663
5.82717
7.92451
9.7022
1854.43
376.245
9.11398
6.88677
10.9779
4.31687
8.26438
5.18039
5.84119
10.7525
6.99409
6180.41
829.848
11.0562
4.1511
8.10546
3.87222
4.04408
7.07112
7.97308
6.43935
10.6363
5838.27
3670.83
9.24422
7.63153
9.53963
4.52587
8.99532
6.65802
5.72919
7.54336
7.05894
1893.58
750.404
11.2955
7.3165
7.22475
3.94622
7.74872
6.99671
7.07592
10.0947
9.14511
1914.07
4828.18
10.0265
5.83689
7.00624
4.43999
5.7154
6.3609
5.38342
8.96886
9.98446
2392.08
1082.05
11.4988
5.84138
10.5534
4.87996
5.64676
7.43968
6.72861
9.61303
6.35172
542.335
905.94
9.50538
4.43193
10.9667
4.537
7.46104
6.86101
5.43619
6.36394
9.89774
196.675
54.8582
9.77489
7.37417
10.5322
4.1255
7.21398
5.71136
5.00908
7.15804
7.02692
761.696
4185.22
11.5273
5.16843
7.86694
4.03215
4.11201
5.07125
7.78399
8.58391
9.49202
2550.75
1002.14
9.99601
4.67136
7.97405
6.63663
11.7274
6.34263
6.80952
8.38407
6.92828
956.981
61.2199
9.97596
5.64013
10.7747
6.80704
11.01
6.49312
6.29865
8.1898
9.29079
232.386
2537.62
8.73195
5.6275
6.42342
5.88908
10.9192
6.63244
7.15525
9.97584
7.43658
5704.05
1878.61
9.95613
5.64976
8.78331
4.86108
10.0322
7.79507
6.57506
6.22437
7.94985
1908.67
2638.84
11.8787
7.64676
10.5499
3.94331
10.2549
6.09522
7.24889
7.88409
10.2121
2612.7
3291.08
10.8421
7.35312
9.68053
6.04364
8.23938
6.11143
5.97139
10.2712
7.00646
1489.36
1863.68
10.8748
5.6341
8.10603
3.04175
4.32407
5.0345
7.45024
7.79715
8.98678
2415.49
2790.49
10.3861
5.17722
9.48617
5.32343
8.50879
6.24002
5.76208
8.57983
7.27375
1699.5
2124.45
9.60236
6.71244
6.39336
3.23145
4.27801
6.73404
7.9017
9.02357
7.21115
5274.51
1321.35
8.94095
6.23763
8.66286
6.92629
6.05064
5.65263
5.50244
9.96421
7.89227
2197.9
1079.61
10.9588
7.6057
10.0579
4.91694
4.26842
7.26195
5.75227
8.2588
7.52673
5497.5
3449.13
10.7745
6.62961
8.17895
3.34244
6.63172
7.36847
6.63221
7.79485
9.046
1133.38
1484.51
11.231
7.57462
8.62507
4.27577
6.37028
5.29214
7.25573
7.29085
8.78221
5057.71
2115.54
8.19948
6.64989
8.7565
4.91586
7.79422
7.1002
5.23232
10.2695
6.89538
1453.61
2139.29
9.13104
4.36089
6.95531
5.43913
6.67301
6.36034
5.7846
10.3995
7.66769
743.197
850.301
11.5931
5.74659
10.5931
6.87152
5.92234
5.39281
7.01626
6.61085
9.97891
3678.62
1151.04
10.7162
6.54096
6.02681
3.26672
8.38146
6.67643
7.20962
10.5195
6.47619
6388.71
510.87
8.76152
6.61169
10.3427
5.21795
11.496
7.59895
5.83728
9.84041
8.41983
6467.62
514.429
11.0165
5.03806
10.1806
4.19685
6.93834
6.11056
5.75778
7.34558
9.04023
1777.43
4352.88
9.74817
6.87558
7.66967
3.83536
5.62828
5.91516
7.72834
10.3359
8.17453
6394.41
1763.57
8.9751
5.07301
7.52301
6.82749
11.2075
5.64725
7.42931
6.7699
9.26611
2302.36
533.552
8.03655
5.05891
8.96685
3.56127
9.10758
6.21026
5.69226
6.74323
7.47926
821.049
1393.12
9.74844
5.69499
10.0506
5.42087
10.0784
7.60099
6.25821
10.8236
10.0371
1444.99
2257.94
10.4846
7.78672
8.9763
5.25134
5.82673
6.21405
7.16447
6.80039
6.01685
1378.31
3353.14
11.4215
7.7095
7.53431
3.22389
4.25814
6.12462
6.49446
7.65484
10.0191
3132.95
4943.48
10.3013
5.24176
8.93788
4.39382
7.91519
5.23916
6.26073
7.43633
9.75493
936.213
805.84
11.8356
4.77811
7.12754
5.47108
9.57711
5.83865
5.38502
7.41959
9.12351
407.728
4204
8.64459
5.70965
7.44815
4.1311
5.2534
6.89338
7.07459
9.83577
8.41242
3472.43
242.693
11.6629
5.53465
8.89192
3.23264
8.90578
6.97915
5.77634
10.3588
10.7223
1909.03
3353.77
11.9205
4.47842
6.45029
5.72277
11.3502
5.65521
5.438
6.87802
9.84659
1509.07
962.714
9.12723
6.48445
10.8332
3.74433
4.84773
5.04208
7.84175
7.85242
7.95387
388.799
757.946
8.48267
4.06294
6.47637
5.67433
10.8985
6.44765
6.66793
7.28708
7.78919
1338.73
583.575
11.7199
7.40113
10.5188
3.8168
6.93075
5.61082
7.93493
6.45301
9.11518
3777.83
1079.89
9.51997
4.47185
6.14379
4.55553
4.79872
7.53098
5.90868
9.80533
8.50055
3286.48
1442.13
11.1335
6.54989
7.02324
3.77343
6.43597
6.97967
6.87153
6.83222
8.99422
103.786
336.044
8.72338
6.05989
9.20902
6.85653
5.32053
7.56324
6.25492
7.73114
8.18357
3397.49
1836.85
11.9071
4.98175
6.75334
5.28787
11.5696
5.35859
6.74751
6.79191
10.6225
6107.46
2088.67
9.07062
6.26874
7.92355
4.07974
6.43181
5.19627
6.50217
9.88236
9.32375
2395.4
1115.07
9.71096
5.05456
10.6987
3.47956
7.20594
7.74728
6.52248
9.42683
6.86149
913.994
1475.4
10.9257
4.44043
8.71332
4.10685
6.83405
5.07305
5.69845
9.56451
10.2484
2386.77
4075.13
8.20749
5.62653
9.45557
5.90131
8.43693
5.65671
6.46644
6.75572
10.8729
2024.44
2239.21
9.40951
5.43795
7.76289
3.82721
11.4811
6.11364
5.40102
9.66812
10.3709
3176.54
3118.98
9.28916
4.71741
6.2791
5.98295
6.1643
6.80088
6.81284
7.65172
7.50915
848.773
3098.62
8.57326
7.31604
9.25662
6.95748
4.06243
7.03293
5.36722
6.76913
7.8061
1958.59
1192.3
9.54277
4.82492
10.1715
5.66594
8.10882
6.93792
6.31262
10.3913
7.09413
761.863
2599.82
9.96587
6.80244
10.4412
6.68548
11.111
6.10921
6.04962
8.58316
10.0927
2058.93
1801.76
8.38402
5.41118
9.06989
3.83482
5.28849
5.5307
5.33148
10.0909
6.7845
3996.37
4624.4
11.1356
7.44122
9.00455
5.74942
5.47972
7.52309
6.37018
7.70759
7.14004
3590
720.413
9.24759
6.45579
10.1803
5.86617
6.96226
5.65372
5.83456
9.24492
6.33192
6604.93
3753.14
11.2427
6.86701
6.53189
3.56409
5.7887
6.07222
5.20907
9.63198
8.65466
7890.27
400.783
9.95535
4.93193
9.35299
6.22025
10.824
5.6075
6.74457
9.461
8.01124
4975.66
240.806
10.2943
5.47745
7.11035
6.33256
4.57839
6.04651
5.23701
9.70929
8.09874
5763.02
2733.82
9.35334
5.96889
7.84006
6.7611
7.88993
5.71565
7.77979
9.43751
10.6485
2987.05
935.58
8.40664
6.59312
7.88831
3.36109
11.9491
6.25708
6.77157
6.57005
8.80108
1614.24
2169.23
11.3158
7.51995
9.1899
5.43688
4.55451
5.80761
5.37505
7.36285
6.27039
3845.6
3039.54
10.4411
4.24089
9.36719
4.35896
9.76273
5.4221
6.09574
8.88142
7.11244
4546.02
3012.92
10.0584
4.51405
10.8879
3.80966
4.67115
5.96163
5.84606
7.01066
7.68711
539.233
2821.85
10.6985
6.87704
7.23985
5.11384
4.8203
7.08475
5.18394
9.78218
6.81176
6224.73
1319.3
11.0607
6.76956
10.9657
4.41952
6.80072
6.57725
6.42457
7.04391
9.83261
6074.01
3863
11.1937
5.41349
9.54177
3.18404
7.19009
7.2958
5.4534
7.00552
8.21097
4521.43
4146.63
8.01463
4.68339
7.82128
5.60061
8.22955
5.5934
5.99539
8.39916
7.88069
1343.39
716.796
9.97824
4.07367
8.4533
5.21551
4.51147
5.75879
5.47115
6.19403
7.53998
6320.66
677.332
9.74689
5.70868
9.67314
4.00573
5.19003
6.14
7.55473
7.27496
7.29802
2192.76
913.148
9.15361
4.50085
7.06508
3.79456
6.35484
7.79448
5.30622
8.01152
6.35721
3449.36
4397.38
11.849
6.91634
7.46702
5.03904
5.29174
6.15497
5.75436
8.7889
8.52815
4888.42
4291.77
9.45669
6.75558
8.62239
6.6186
7.48245
6.97889
6.81353
8.15934
6.10203
6293.82
2607.34
10.3802
5.79365
9.54444
5.74278
11.0631
5.09779
5.91677
10.7179
6.33849
564.835
2025.96
11.9149
5.29315
6.89664
4.66153
10.6514
7.37216
7.95488
7.72306
8.63557
1333.7
2419.51
8.88404
4.66448
7.57389
6.0923
7.06738
6.55871
7.72031
9.01772
6.86974
2353.27
1692.29
11.3251
6.00724
8.30001
5.08047
5.14792
6.77141
7.2054
9.34902
9.1594
1612.98
543.605
11.1437
7.19339
7.2953
3.1748
8.08165
5.09659
6.35462
6.42514
10.7972
196.268
902.516
9.68805
5.21075
7.83205
5.8557
5.81884
5.94775
6.97357
8.44185
10.098
2691.81
628.636
11.1187
7.19351
9.66031
5.29673
11.8168
6.24286
5.19732
6.55489
6.95676
908.282
4073.61
8.12746
4.4228
6.41579
3.05317
6.73368
7.62742
6.74584
10.0921
8.52163
5310.9
520.492
10.196
6.17655
6.92742
6.77629
4.58606
6.97738
6.2434
6.9536
6.40492
2314.07
351.272
9.76855
6.03779
8.38856
3.72954
4.46841
7.85883
5.31978
6.6652
9.11082
1847.86
4850.52
10.4254
4.16066
8.33416
3.60249
6.8083
6.91412
7.01995
10.6476
10.4886
1659.64
2926.17
9.12656
7.77494
10.3231
3.02116
7.0072
7.7434
7.57057
7.36036
9.69639
866.196
3220.78
11.883
6.96599
7.15617
4.9934
8.34715
7.55236
6.18478
9.69559
10.2596
3714.06
818.294
8.86636
6.24934
7.78783
3.30333
6.05142
6.62263
7.59718
6.87618
7.26633
1407.34
2163.59
11.9826
5.48184
9.05107
5.03205
10.2289
6.89979
6.62292
7.18779
9.07085
2489.49
3272.91
11.1156
5.22299
8.25951
3.11865
9.79062
6.10903
6.71508
7.50278
10.1179
7447.86
1619.07
11.0668
7.96459
8.1296
6.01595
4.37733
6.48133
5.46559
7.49802
10.1174
157.959
81.6846
10.6667
5.91119
7.74963
3.28514
11.364
6.74008
7.75152
7.70472
7.29765
1245.91
1977.48
10.3197
6.14259
7.66475
6.85429
4.26933
5.58227
5.62014
7.85348
9.77541
5283.95
3022.57
11.8768
4.72945
9.85051
4.18008
7.616
6.29771
6.81675
7.00977
10.1348
3851.59
2676.54
11.7238
5.28157
10.6224
3.88885
7.9815
7.00933
7.86488
8.31796
8.55134
6217.31
2147.01
9.29927
5.37887
10.1138
6.64264
7.6063
5.36572
5.47456
9.96281
9.08685
7011.3
539.369
9.0233
5.75723
8.25069
3.2456
4.17389
7.63417
6.58397
7.12882
6.40904
6819.03
113.519
8.29019
5.26285
9.04898
6.59793
10.4364
6.22142
5.88682
8.50586
10.6594
5051.47
4392.82
11.2212
6.82636
9.46535
4.93875
11.0655
6.27568
6.72837
7.599
8.80686
4792.91
3312.27
9.70816
6.09163
10.9598
3.9827
9.73581
5.63867
5.83255
6.09058
9.30767
4548.87
2081.26
9.77458
7.494
9.10443
3.03466
6.6052
5.86983
5.96475
8.25346
9.97486
1875.22
1485.72
9.27301
4.9293
7.7474
3.42937
4.83723
7.42098
7.00893
6.89717
9.87042
4101.12
678.273
10.892
6.61459
9.95237
3.20703
6.32195
6.47584
5.8045
9.44639
7.0033
2087.81
60.4805
10.1981
5.16224
6.8657
4.64915
6.15667
6.15009
5.93333
8.84268
8.93126
7648.54
1854.46
11.0719
6.17942
10.6655
4.4383
6.93504
5.02315
6.19628
8.97932
6.37255
2393.83
1698.24
8.07413
4.40296
7.27526
3.77107
11.8785
6.17492
7.17953
7.32371
8.21031
2663.43
58.3508
10.6112
4.73108
7.68545
5.57328
10.2945
7.54134
5.58824
8.81875
8.25852
65.5852
786.098
9.14202
6.91912
6.1082
4.87928
7.65404
6.74895
5.87405
9.67061
7.5407
2441.49
1534.01
8.17311
4.53871
7.07713
5.17318
5.31521
7.15197
6.91714
8.55119
6.52409
4957.99
2254.92
11.95
5.94555
10.8383
5.16774
8.48954
5.35554
5.74359
8.96274
10.8936
2593.95
1058.12
10.349
6.26306
6.0191
3.3687
6.62455
7.60796
6.61608
8.81025
8.27205
2828.29
3983.39
8.94636
4.07378
6.03249
3.3768
11.5601
7.47597
7.40012
6.10056
7.35394
2191.1
627.613
10.1621
4.94565
7.46407
5.61717
10.6149
5.6614
7.25455
6.74416
6.52415
5634.41
3081.76
9.10163
6.0593
6.74909
6.10397
9.91679
6.02865
7.05744
7.31271
7.56984
1322.43
3100.56
10.5513
4.18024
9.93138
5.5553
11.4988
7.17245
7.98099
8.11812
9.48381
6658.41
197.724
9.8246
5.55415
8.30207
5.36214
9.9689
6.606
5.3248
6.88588
6.55017
4614.83
1055.05
10.066
5.48466
9.5235
5.03736
4.3523
5.32969
5.75718
6.10843
6.42361
249.301
428.564
10.0496
6.86517
6.24436
3.759
8.28301
6.16498
7.10089
8.12977
8.66283
1168.41
331.864
8.18197
7.77468
10.715
3.7173
10.0267
7.87445
5.7263
9.85015
10.8666
5361.51
4591.22
9.80909
5.35583
7.57384
3.14084
4.00744
6.01607
5.93699
6.95072
9.43418
4363.83
240.461
11.3458
5.93364
9.3768
4.95506
4.01609
6.29558
7.92533
7.70224
10.5128
7865.66
2883.81
11.2671
4.94083
9.89986
6.31623
9.9996
7.81182
7.1332
9.15853
7.70686
1460.69
3432.67
9.46906
4.04823
8.3974
5.16884
9.90525
5.59003
6.15092
9.3064
9.59419
1811.17
4800.25
11.5022
7.06443
7.42928
4.35734
8.31663
5.62829
5.64014
6.99515
7.37114
1492.07
138.234
11.2294
5.16256
8.59175
4.1495
5.76906
7.77975
6.53006
7.81479
6.69726
2891.48
1740.26
8.92782
6.49226
10.2523
5.99471
4.33053
6.34282
6.78996
7.32365
8.34969
475.647
459.757
9.17461
5.81399
7.28447
4.77919
10.1659
6.35989
7.55998
8.90147
9.39523
2960
3635.27
10.4393
4.83483
10.8963
3.90626
5.16012
6.29499
6.44833
8.88023
6.71522
7028.97
2908.51
9.06726
4.31501
6.57397
4.36582
11.8304
6.10908
6.08324
10.0758
9.69819
4087.14
162.482
9.05704
5.82902
7.26981
6.35917
9.09607
7.35167
6.53189
10.39
7.2841
2790.65
2941.35
8.36203
4.21003
9.97931
4.91077
9.3561
5.56082
5.56328
7.71427
7.43695
5227.73
3338.92
9.4911
4.71084
6.99415
5.79251
8.93615
7.96134
6.17655
6.81332
6.0604
2943.96
2142.93
9.45211
4.17267
7.74175
6.4278
11.3988
6.42843
5.15014
6.76471
8.95814
4230.75
4045.53
10.8468
4.66041
6.0784
3.65058
9.09787
5.50512
6.93544
8.84247
9.17348
6623.55
391.965
10.2464
6.93575
9.35665
4.1855
7.48529
6.29649
7.74979
8.35582
8.03122
1873.03
4615.04
8.87511
6.40783
6.54304
5.68788
11.723
6.46525
5.22746
9.84849
9.1191
1246.5
981.468
11.0277
7.07826
6.97277
6.90728
7.16393
6.07507
7.22906
6.24652
7.31286
6222.27
1553.12
10.285
4.47801
7.6215
6.03137
6.36809
6.06883
7.268
9.91936
6.81956
4147.99
1131.5
11.7311
4.1994
8.09715
4.68937
11.4907
5.24104
7.13089
10.613
8.2122
2295.07
313.029
9.62848
5.82697
7.92094
5.39615
7.70993
7.32846
5.10497
8.69764
10.7612
1574.08
4622.22
11.9945
7.3838
10.51
4.36024
5.48592
6.14865
7.77547
8.6178
8.99408
1435.33
4725.11
10.9832
5.16498
9.8696
4.02464
11.0321
5.02875
7.15736
9.92313
8.24714
4525.39
1147.44
11.6179
5.04903
8.74049
3.51003
4.00328
5.97217
7.65847
9.1974
7.89041
3899.88
4849.3
8.61118
4.26492
9.43188
5.04178
9.87011
5.11894
7.95932
7.43145
10.9711
4267.45
4781.13
11.2406
6.18537
7.60651
6.12367
7.39833
7.64463
5.41617
10.004
10.6518
865.173
3105.18
11.2375
6.12064
6.17208
4.23111
4.83157
7.30673
6.85278
10.1
8.34957
1508.48
1902.47
8.64079
5.06369
8.51938
3.55235
5.37221
6.25952
5.07341
7.02855
10.7999
7864.31
1312.73
11.4425
5.85719
8.0629
5.2459
6.39578
7.7975
6.49486
8.1133
10.2195
708.096
2245.36
9.56485
5.07111
10.85
3.95
11.1356
5.3722
6.65592
8.70596
6.71021
3927.18
274.378
9.09338
5.78806
10.5614
3.58048
6.35083
7.71592
6.29004
10.6254
10.1209
929.293
1486.12
8.02065
4.85492
8.48157
6.52588
7.60878
5.73561
5.3078
10.1596
9.85743
7800.67
4212.14
9.48967
4.74408
9.81275
4.81811
4.377
6.82334
7.35261
6.72841
9.74715
7754.28
4099.37
10.9159
6.13726
6.06811
5.62937
7.45874
5.05398
6.44608
9.49229
6.08734
2178.05
2060.52
9.34256
6.868
7.55511
3.20483
4.70798
5.20796
6.48523
6.2186
6.13334
4796.69
4352.5
9.54503
4.44846
9.80838
5.15109
10.7037
6.28418
6.58169
7.40843
6.33493
4185.52
2359.17
8.03984
4.83779
6.52336
6.08757
6.92496
5.94539
5.02479
10.0267
9.82434
5550.39
1708.87
11.6845
6.79127
9.62162
4.40799
4.29654
7.57946
5.46456
7.77098
6.84103
2292.46
602.058
8.89438
5.39626
10.6771
5.12508
4.32402
7.29725
6.04724
6.56257
10.7324
1682.55
213.149
9.077
6.6293
6.22412
5.81621
5.29041
7.22839
7.84583
8.95708
8.32389
4970.34
4683.03
9.56728
7.12818
10.9151
3.61529
5.58256
7.11906
6.03956
6.59727
6.43795
7017.56
876.014
9.9631
6.50096
7.14807
3.80174
6.63374
6.63481
5.79334
8.4161
8.74638
5688.21
371.995
10.0314
6.83136
9.71199
4.68253
7.17695
6.24271
7.56557
6.60083
9.88848
53.1354
53.7842
8.71711
5.71781
7.03023
3.03402
11.0076
6.77926
6.01793
10.0784
9.52146
965.223
1083.27
8.64035
4.9224
10.6398
3.66505
11.7992
7.59783
5.4312
10.7506
9.58074
1312.61
3256.51
8.1196
6.6906
10.8127
4.30075
10.0745
5.68532
7.06949
7.38333
7.09448
983.245
4809.05
10.8296
5.37515
6.0779
5.49089
4.35452
6.60139
7.86066
10.2486
6.32194
2577.41
2014.63
9.08494
4.95522
6.02929
5.13161
5.6178
6.5257
7.90101
8.4197
7
30.691
2883.28
9.36638
6.21829
10.4591
4.25264
10.7909
5.39763
7.77553
7.49326
8.13604
1426.31
4106.01
9.02231
5.37844
9.61927
6.80639
9.83447
5.05773
6.49725
9.88628
10.4046
1444.59
3405.8
11.6001
6.6536
6.81132
3.37416
6.32185
5.57966
5.93721
7.97927
6.94318
1566.92
761.779
10.7159
5.11189
6.00089
5.248
4.27415
7.40333
5.81785
10.3074
10.4129
70.6366
598.72
9.42765
4.57738
6.66004
4.65244
7.33888
7.85705
7.14958
9.6174
9.49739
5535.11
631.413
9.70735
7.35081
8.407
4.71979
8.6792
7.25424
6.78331
9.44385
7.01753
49.5788
177.976
8.78051
7.1822
9.25025
5.01319
5.2275
5.82241
7.13105
6.07825
6.04331
6830.69
2175.49
8.78441
4.99621
6.61737
6.25816
4.89544
6.34866
5.31696
9.75407
10.4994
1630.91
2608.56
10.8119
7.99708
7.84734
4.61081
11.6417
7.22011
6.62931
10.7697
6.95727
1100.29
3044.19
11.214
5.67575
9.17406
3.22071
6.10095
7.89929
6.19803
8.43635
8.38895
3455.56
949.381
10.2318
7.78368
9.13574
6.23704
6.69123
6.16479
6.55687
6.54358
10.9309
4923.71
1153.28
11.5806
7.3761
9.46185
6.91183
4.74843
6.00555
5.28411
7.83983
10.605
1251.81
2297.05
10.2949
6.79799
8.62972
6.23659
8.73475
5.29208
5.63431
8.09321
8.99567
611.772
2069.3
10.9071
4.9883
10.8926
5.90508
7.33839
5.5952
5.18635
7.59665
10.0306
2345.87
1964.65
8.03926
4.28454
6.53628
5.6513
9.66437
7.71687
6.34801
8.21244
8.8913
5615.16
1753.86
9.91297
5.12782
9.02048
3.13925
6.92619
7.28506
6.25689
7.59545
7.73506
270.044
671.709
10.5488
7.10513
7.71944
3.25071
7.20498
6.29114
5.94071
7.5815
8.10222
2026.29
772.185
9.37202
6.3196
9.70519
4.31763
5.80678
6.08765
7.50796
8.68111
9.49692
2592.53
2184.52
8.60096
4.59341
8.10267
6.69559
4.98318
5.7114
5.8856
7.92446
6.88826
4161.6
386.919
9.44672
4.49448
10.3164
6.81889
7.04966
6.65431
6.0829
10.3228
6.44735
3316.61
3873.08
9.78164
6.13347
6.39893
6.4111
9.23108
5.49353
6.02231
10.1093
6.4523
693.906
1395.62
9.94042
6.0728
8.92555
5.59933
9.43573
5.00731
5.85008
8.51763
9.04488
2574.46
3237.67
10.6589
4.05171
8.04123
4.39405
5.01543
5.60277
5.10418
9.31335
10.1858
3340.64
935.57
9.42552
6.508
8.98888
4.2365
10.2708
6.55615
6.30564
9.76197
10.5628
2705.03
2162.06
8.04027
5.64656
10.5328
6.0351
8.29861
6.40989
7.03709
9.59877
8.33814
7925.91
1006.35
8.81158
5.68793
9.88662
6.6831
6.49652
5.00704
6.87518
7.90505
6.99033
3840.93
583.4
11.2283
4.71053
6.81817
6.53267
6.33434
5.5989
5.68594
9.71453
6.08002
7061.82
4238.05
8.17809
4.37252
9.36659
3.83034
10.0496
5.95544
7.35137
7.30458
10.8332
210.389
4372.06
9.93956
7.02412
7.08635
5.55004
4.62781
5.73549
6.32567
9.23537
9.8294
2854.79
368.311
9.68238
6.46999
9.90822
4.94773
8.07549
7.28761
6.10637
10.6983
9.65968
2185.54
2586.52
9.83678
4.21583
6.72589
6.12663
9.51392
7.36074
5.53768
8.97039
10.6405
2495.66
4857.38
9.42884
5.83421
7.42837
4.84286
7.2506
6.39429
7.53802
9.47185
8.56833
5435.34
190.199
8.35242
5.12402
8.44058
4.98455
6.45832
7.67282
6.90046
8.50797
10.2484
5553.46
1559.79
10.0943
6.41552
6.78318
4.16863
4.76893
5.30006
6.07677
9.28132
7.6379
4456.89
1341.8
10.0968
7.79821
8.79428
3.60475
11.2265
5.32434
6.08282
6.87424
7.17371
1082.78
2101.01
11.0233
5.19212
6.24597
3.55898
9.65104
6.20932
5.30401
8.41709
6.21138
1544.52
285.747
10.2662
6.07325
6.6731
3.85712
4.71771
7.81255
6.27725
10.6988
6.32975
4199.64
4634.62
9.95372
5.91984
9.05711
6.54716
11.3871
7.46372
7.50378
10.8896
8.65668
5086.68
3594.3
11.5331
4.43874
7.54481
5.51774
6.23422
7.36593
5.77586
6.47461
8.21291
528.154
700.943
8.64667
6.74203
8.36797
5.65014
5.46048
7.44963
5.10401
9.39462
7.26155
1316.96
273.84
9.43351
4.19313
8.19266
6.72905
8.70106
5.82825
7.29839
7.07494
8.93133
699.389
3257.86
8.65178
7.06446
9.09439
4.12415
10.1097
5.06004
5.66557
9.95191
7.4073
756.59
317.967
10.1465
5.92609
8.98023
3.40139
9.25243
6.63246
7.79604
7.87837
7.43337
2155.34
2255.23
11.8905
7.16818
10.3207
5.66465
7.8275
5.79332
7.22124
8.19543
8.05851
1816.81
758.988
9.59126
7.17599
9.44876
6.67018
7.25033
7.67399
7.43059
10.3311
8.07401
6453.95
1364.56
9.01661
4.32553
6.19811
4.87874
6.17169
5.64917
5.43296
9.06497
6.96084
3577.96
3414.64
9.06742
7.27718
9.26471
5.16443
6.51567
5.5676
5.0774
10.3542
9.17581
7607.05
1897.13
11.2448
5.81713
10.2191
6.7143
9.06018
7.93665
5.06592
9.06106
7.63337
4018.81
4564.54
11.6012
6.10858
9.40537
6.35783
5.76645
7.2108
7.06771
9.77506
6.44731
1149.47
414.876
8.81112
5.62083
9.53537
4.40305
5.6075
5.10106
7.90554
7.97437
9.84983
1375.06
4523.56
10.381
4.44626
8.5104
6.30198
5.28377
5.83503
7.95643
10.3668
10.5478
4520.14
761.61
10.5268
6.18184
10.6103
6.4705
11.6738
6.16023
5.74882
7.68155
6.8835
47.5714
1016.03
11.3465
4.16809
9.76654
3.38405
4.09263
6.13849
7.08378
10.9135
10.0836
885.751
1933.98
9.96227
4.08107
6.29623
6.65076
4.44638
6.45092
6.89998
7.76972
6.20763
5684.47
865.211
8.35679
6.27156
9.35596
5.04498
7.64474
7.6832
7.60661
8.81249
8.74736
990.203
821.03
10.65
7.87459
10.4201
3.14967
10.4968
7.87375
5.20338
10.9125
7.5978
7200.19
1117.02
11.8664
6.57634
6.33175
3.8487
6.3919
5.27294
5.38841
6.60734
8.07776
1794.41
721.318
8.41198
4.62428
6.85693
3.35615
4.58512
7.18003
6.15335
10.8881
8.0671
5023.49
147.585
9.89295
6.53569
10.8027
4.79899
5.98337
5.98196
5.63608
6.10367
7.60222
1440.48
554.833
10.3977
5.67553
9.61736
3.60115
9.18188
6.75724
6.61922
10.0462
10.8461
6902.54
1651.47
9.84364
7.44615
8.89627
3.49015
10.5869
5.62929
6.43439
7.91869
7.74352
4826.75
225.631
11.3176
5.53252
10.112
4.6098
6.64765
6.56045
7.85716
9.13453
7.8974
3041.43
1269.56
10.6908
5.02345
6.59431
3.45032
7.8322
5.4693
5.50045
9.38427
6.22877
2154.14
357.264
9.79804
5.01143
7.55809
6.56643
7.71901
6.59899
5.88386
9.31064
9.94869
1023.28
836.547
10.0495
7.7815
9.19081
3.14877
10.3764
7.5783
7.02633
9.04264
9.68244
5301.81
2064
8.81788
5.53755
7.27162
6.03831
6.16651
6.81269
7.86179
6.12791
6.83183
479.88
2593.55
10.6687
7.76196
7.04147
5.66388
10.5848
7.32401
5.39155
10.1821
9.35183
3863.38
4934.15
11.7169
4.68648
6.12866
5.17316
8.11247
7.38163
7.12186
10.2134
8.31141
5987
970.106
11.929
6.52943
8.33701
3.88027
8.78668
7.37832
7.25361
9.88997
7.2794
1752.26
1803.97
10.3683
7.73557
9.15739
6.05544
4.72992
6.75738
7.63717
7.73504
7.29096
5995.26
1395.87
9.17775
4.53096
9.46025
3.79906
5.36185
6.64155
6.60193
7.64785
10.8947
